Emulator/simulation/qsim/test.msim.vcd
$comment
	File created using the following command:
		vcd file test.msim.vcd -direction
$end
$date
	Mon Dec 20 22:27:10 2021
$end
$version
	ModelSim Version 10.1d
$end
$timescale
	1ps
$end
$scope module TRG_vlg_vec_tst $end
$var reg 1 ! C $end
$var reg 1 " D $end
$var reg 1 # R $end
$var reg 1 $ S $end
$var wire 1 % RF $end
$var wire 1 & RI $end
$var wire 1 ' sampler $end
$scope module i1 $end
$var wire 1 ( gnd $end
$var wire 1 ) vcc $end
$var wire 1 * unknown $end
$var tri1 1 + devclrn $end
$var tri1 1 , devpor $end
$var tri1 1 - devoe $end
$var wire 1 . D~combout $end
$var wire 1 / C~combout $end
$var wire 1 0 S~combout $end
$var wire 1 1 R~combout $end
$var wire 1 2 RF~0_combout $end
$var wire 1 3 RF~reg0_regout $end
$upscope $end
$upscope $end
$enddefinitions $end
#0
$dumpvars
0!
0"
1#
1$
0%
1&
x'
0(
1)
x*
1+
1,
1-
0.
0/
10
11
02
03
$end
#3000
1!
1/
0'
#6000
0!
0/
1'
#9000
1!
1/
0'
#12000
0!
0/
1'
#15000
1!
1/
0'
#18000
0!
0/
1'
#20000
1"
0$
1.
00
0'
12
#21000
1!
1/
1'
13
1%
0&
#24000
0!
0/
0'
#27000
1!
1/
1'
#30000
0"
1$
0!
0.
10
0/
0'
#33000
1!
1/
1'
#36000
0!
0/
0'
#39000
1!
1/
1'
#42000
0!
0/
0'
#45000
1!
1/
1'
#48000
0!
0/
0'
#51000
1!
1/
1'
#54000
0!
0/
0'
#57000
1!
1/
1'
#60000
0!
0/
0'
#63000
1!
1/
1'
#66000
0!
0/
0'
#69000
1!
1/
1'
#70000
0#
01
0'
02
#72000
0!
0/
1'
#75000
1!
1/
0'
03
0%
1&
#78000
0!
0/
1'
#80000
1#
11
0'
#81000
1!
1/
1'
#84000
0!
0/
0'
#87000
1!
1/
1'
#90000
0!
0/
0'
#93000
1!
1/
1'
#96000
0!
0/
0'
#99000
1!
1/
1'
#102000
0!
0/
0'
#105000
1!
1/
1'
#108000
0!
0/
0'
#111000
1!
1/
1'
#114000
0!
0/
0'
#117000
1!
1/
1'
#120000
0!
0/
0'
#123000
1!
1/
1'
#126000
0!
0/
0'
#129000
1!
1/
1'
#132000
0!
0/
0'
#135000
1!
1/
1'
#138000
0!
0/
0'
#141000
1!
1/
1'
#144000
0!
0/
0'
#147000
1!
1/
1'
#150000
0!
0/
0'
#153000
1!
1/
1'
#156000
0!
0/
0'
#159000
1!
1/
1'
#162000
0!
0/
0'
#165000
1!
1/
1'
#168000
0!
0/
0'
#171000
1!
1/
1'
#174000
0!
0/
0'
#177000
1!
1/
1'
#180000
0!
0/
0'
#183000
1!
1/
1'
#186000
0!
0/
0'
#189000
1!
1/
1'
#192000
0!
0/
0'
#195000
1!
1/
1'
#198000
0!
0/
0'
#201000
1!
1/
1'
#204000
0!
0/
0'
#207000
1!
1/
1'
#210000
0!
0/
0'
#213000
1!
1/
1'
#216000
0!
0/
0'
#219000
1!
1/
1'
#222000
0!
0/
0'
#225000
1!
1/
1'
#228000
0!
0/
0'
#231000
1!
1/
1'
#234000
0!
0/
0'
#237000
1!
1/
1'
#240000
0!
0/
0'
#243000
1!
1/
1'
#246000
0!
0/
0'
#249000
1!
1/
1'
#252000
0!
0/
0'
#255000
1!
1/
1'
#258000
0!
0/
0'
#261000
1!
1/
1'
#264000
0!
0/
0'
#267000
1!
1/
1'
#270000
0!
0/
0'
#273000
1!
1/
1'
#276000
0!
0/
0'
#279000
1!
1/
1'
#282000
0!
0/
0'
#285000
1!
1/
1'
#288000
0!
0/
0'
#291000
1!
1/
1'
#294000
0!
0/
0'
#297000
1!
1/
1'
#300000
0!
0/
0'
#303000
1!
1/
1'
#306000
0!
0/
0'
#309000
1!
1/
1'
#312000
0!
0/
0'
#315000
1!
1/
1'
#318000
0!
0/
0'
#321000
1!
1/
1'
#324000
0!
0/
0'
#327000
1!
1/
1'
#330000
0!
0/
0'
#333000
1!
1/
1'
#336000
0!
0/
0'
#339000
1!
1/
1'
#342000
0!
0/
0'
#345000
1!
1/
1'
#348000
0!
0/
0'
#351000
1!
1/
1'
#354000
0!
0/
0'
#357000
1!
1/
1'
#360000
0!
0/
0'
#363000
1!
1/
1'
#366000
0!
0/
0'
#369000
1!
1/
1'
#372000
0!
0/
0'
#375000
1!
1/
1'
#378000
0!
0/
0'
#381000
1!
1/
1'
#384000
0!
0/
0'
#387000
1!
1/
1'
#390000
0!
0/
0'
#393000
1!
1/
1'
#396000
0!
0/
0'
#399000
1!
1/
1'
#402000
0!
0/
0'
#405000
1!
1/
1'
#408000
0!
0/
0'
#411000
1!
1/
1'
#414000
0!
0/
0'
#417000
1!
1/
1'
#420000
0!
0/
0'
#423000
1!
1/
1'
#426000
0!
0/
0'
#429000
1!
1/
1'
#432000
0!
0/
0'
#435000
1!
1/
1'
#438000
0!
0/
0'
#441000
1!
1/
1'
#444000
0!
0/
0'
#447000
1!
1/
1'
#450000
0!
0/
0'
#453000
1!
1/
1'
#456000
0!
0/
0'
#459000
1!
1/
1'
#462000
0!
0/
0'
#465000
1!
1/
1'
#468000
0!
0/
0'
#471000
1!
1/
1'
#474000
0!
0/
0'
#477000
1!
1/
1'
#480000
0!
0/
0'
#483000
1!
1/
1'
#486000
0!
0/
0'
#489000
1!
1/
1'
#492000
0!
0/
0'
#495000
1!
1/
1'
#498000
0!
0/
0'
#501000
1!
1/
1'
#504000
0!
0/
0'
#507000
1!
1/
1'
#510000
0!
0/
0'
#513000
1!
1/
1'
#516000
0!
0/
0'
#519000
1!
1/
1'
#522000
0!
0/
0'
#525000
1!
1/
1'
#528000
0!
0/
0'
#531000
1!
1/
1'
#534000
0!
0/
0'
#537000
1!
1/
1'
#540000
0!
0/
0'
#543000
1!
1/
1'
#546000
0!
0/
0'
#549000
1!
1/
1'
#552000
0!
0/
0'
#555000
1!
1/
1'
#558000
0!
0/
0'
#561000
1!
1/
1'
#564000
0!
0/
0'
#567000
1!
1/
1'
#570000
0!
0/
0'
#573000
1!
1/
1'
#576000
0!
0/
0'
#579000
1!
1/
1'
#582000
0!
0/
0'
#585000
1!
1/
1'
#588000
0!
0/
0'
#591000
1!
1/
1'
#594000
0!
0/
0'
#597000
1!
1/
1'
#600000
0!
0/
0'
#603000
1!
1/
1'
#606000
0!
0/
0'
#609000
1!
1/
1'
#612000
0!
0/
0'
#615000
1!
1/
1'
#618000
0!
0/
0'
#621000
1!
1/
1'
#624000
0!
0/
0'
#627000
1!
1/
1'
#630000
0!
0/
0'
#633000
1!
1/
1'
#636000
0!
0/
0'
#639000
1!
1/
1'
#642000
0!
0/
0'
#645000
1!
1/
1'
#648000
0!
0/
0'
#651000
1!
1/
1'
#654000
0!
0/
0'
#657000
1!
1/
1'
#660000
0!
0/
0'
#663000
1!
1/
1'
#666000
0!
0/
0'
#669000
1!
1/
1'
#672000
0!
0/
0'
#675000
1!
1/
1'
#678000
0!
0/
0'
#681000
1!
1/
1'
#684000
0!
0/
0'
#687000
1!
1/
1'
#690000
0!
0/
0'
#693000
1!
1/
1'
#696000
0!
0/
0'
#699000
1!
1/
1'
#702000
0!
0/
0'
#705000
1!
1/
1'
#708000
0!
0/
0'
#711000
1!
1/
1'
#714000
0!
0/
0'
#717000
1!
1/
1'
#720000
0!
0/
0'
#723000
1!
1/
1'
#726000
0!
0/
0'
#729000
1!
1/
1'
#732000
0!
0/
0'
#735000
1!
1/
1'
#738000
0!
0/
0'
#741000
1!
1/
1'
#744000
0!
0/
0'
#747000
1!
1/
1'
#750000
0!
0/
0'
#753000
1!
1/
1'
#756000
0!
0/
0'
#759000
1!
1/
1'
#762000
0!
0/
0'
#765000
1!
1/
1'
#768000
0!
0/
0'
#771000
1!
1/
1'
#774000
0!
0/
0'
#777000
1!
1/
1'
#780000
0!
0/
0'
#783000
1!
1/
1'
#786000
0!
0/
0'
#789000
1!
1/
1'
#792000
0!
0/
0'
#795000
1!
1/
1'
#798000
0!
0/
0'
#801000
1!
1/
1'
#804000
0!
0/
0'
#807000
1!
1/
1'
#810000
0!
0/
0'
#813000
1!
1/
1'
#816000
0!
0/
0'
#819000
1!
1/
1'
#822000
0!
0/
0'
#825000
1!
1/
1'
#828000
0!
0/
0'
#831000
1!
1/
1'
#834000
0!
0/
0'
#837000
1!
1/
1'
#840000
0!
0/
0'
#843000
1!
1/
1'
#846000
0!
0/
0'
#849000
1!
1/
1'
#852000
0!
0/
0'
#855000
1!
1/
1'
#858000
0!
0/
0'
#861000
1!
1/
1'
#864000
0!
0/
0'
#867000
1!
1/
1'
#870000
0!
0/
0'
#873000
1!
1/
1'
#876000
0!
0/
0'
#879000
1!
1/
1'
#882000
0!
0/
0'
#885000
1!
1/
1'
#888000
0!
0/
0'
#891000
1!
1/
1'
#894000
0!
0/
0'
#897000
1!
1/
1'
#900000
0!
0/
0'
#903000
1!
1/
1'
#906000
0!
0/
0'
#909000
1!
1/
1'
#912000
0!
0/
0'
#915000
1!
1/
1'
#918000
0!
0/
0'
#921000
1!
1/
1'
#924000
0!
0/
0'
#927000
1!
1/
1'
#930000
0!
0/
0'
#933000
1!
1/
1'
#936000
0!
0/
0'
#939000
1!
1/
1'
#942000
0!
0/
0'
#945000
1!
1/
1'
#948000
0!
0/
0'
#951000
1!
1/
1'
#954000
0!
0/
0'
#957000
1!
1/
1'
#960000
0!
0/
0'
#963000
1!
1/
1'
#966000
0!
0/
0'
#969000
1!
1/
1'
#972000
0!
0/
0'
#975000
1!
1/
1'
#978000
0!
0/
0'
#981000
1!
1/
1'
#984000
0!
0/
0'
#987000
1!
1/
1'
#990000
0!
0/
0'
#993000
1!
1/
1'
#996000
0!
0/
0'
#999000
1!
1/
1'
