Scheme/simulation/qsim/Scheme.msim.vcd
$comment
	File created using the following command:
		vcd file Scheme.msim.vcd -direction
$end
$date
	Thu Dec 23 15:46:28 2021
$end
$version
	ModelSim Version 10.1d
$end
$timescale
	1ps
$end
$scope module Scheme_vlg_vec_tst $end
$var reg 1 ! ACCESS $end
$var reg 1 " M20 $end
$var reg 1 # MODSEL $end
$var wire 1 $ CSV $end
$var wire 1 % GCLK $end
$var wire 1 & HVSYNC $end
$var wire 1 ' LOAD $end
$var wire 1 ( LOADCT2 $end
$var wire 1 ) LOADPOM $end
$var wire 1 * M1 $end
$var wire 1 + M1_25 $end
$var wire 1 , M2 $end
$var wire 1 - M2_5 $end
$var wire 1 . M4 $end
$var wire 1 / M5 $end
$var wire 1 0 M10 $end
$var wire 1 1 M_2_5 $end
$var wire 1 2 nCAS $end
$var wire 1 3 nF1T $end
$var wire 1 4 nF2T $end
$var wire 1 5 nRAS $end
$var wire 1 6 SHIFT $end
$var wire 1 7 VCLK $end
$var wire 1 8 sampler $end
$scope module i1 $end
$var wire 1 9 gnd $end
$var wire 1 : vcc $end
$var wire 1 ; unknown $end
$var tri1 1 < devclrn $end
$var tri1 1 = devpor $end
$var tri1 1 > devoe $end
$var wire 1 ? D47|Equal0~0_combout $end
$var wire 1 @ D47|Data~3_combout $end
$var wire 1 A D44|Data[3]~clkctrl_outclk $end
$var wire 1 B M20~combout $end
$var wire 1 C M20~clkctrl_outclk $end
$var wire 1 D D50|Data~2_combout $end
$var wire 1 E D50|Data~3_combout $end
$var wire 1 F D50|Data[3]~0_combout $end
$var wire 1 G D50|Data[3]~1_combout $end
$var wire 1 H inst6|RF~0_combout $end
$var wire 1 I inst6|RF~regout $end
$var wire 1 J D44|Data[0]~3_combout $end
$var wire 1 K D44|Data[1]~0_combout $end
$var wire 1 L D44|Data[2]~1_combout $end
$var wire 1 M D44|Data[3]~2_combout $end
$var wire 1 N D26|RF~feeder_combout $end
$var wire 1 O D26|RF~regout $end
$var wire 1 P D25|RF~feeder_combout $end
$var wire 1 Q D25|RF~regout $end
$var wire 1 R D39~combout $end
$var wire 1 S D24~combout $end
$var wire 1 T D44|Data[0]~clkctrl_outclk $end
$var wire 1 U D27|RF~feeder_combout $end
$var wire 1 V D27|RF~regout $end
$var wire 1 W ACCESS~combout $end
$var wire 1 X D49|CSV~0_combout $end
$var wire 1 Y D49|CSV~combout $end
$var wire 1 Z D45|Data[0]~3_combout $end
$var wire 1 [ MODSEL~combout $end
$var wire 1 \ D46|Data[0]~3_combout $end
$var wire 1 ] D49|LOADCT2~0_combout $end
$var wire 1 ^ D45|Data~2_combout $end
$var wire 1 _ D45|Equal0~0_combout $end
$var wire 1 ` D45|Data~0_combout $end
$var wire 1 a D45|Equal0~1_combout $end
$var wire 1 b D45|CR~2_combout $end
$var wire 1 c D45|CR~regout $end
$var wire 1 d D46|Data~1_combout $end
$var wire 1 e D46|Data~0_combout $end
$var wire 1 f D48|Data~3_combout $end
$var wire 1 g D47|Data~1_combout $end
$var wire 1 h D46|Equal0~1_combout $end
$var wire 1 i D46|Data[3]~2_combout $end
$var wire 1 j D46|Equal0~0_combout $end
$var wire 1 k D46|CR~regout $end
$var wire 1 l D47|always0~0_combout $end
$var wire 1 m D47|Data~0_combout $end
$var wire 1 n D47|Data~2_combout $end
$var wire 1 o D47|Equal0~1_combout $end
$var wire 1 p D47|CR~0_combout $end
$var wire 1 q D47|CR~regout $end
$var wire 1 r D48|always0~0_combout $end
$var wire 1 s D48|Data~1_combout $end
$var wire 1 t D48|Equal0~0_combout $end
$var wire 1 u D48|Data~2_combout $end
$var wire 1 v D48|Equal0~1_combout $end
$var wire 1 w D48|CR~0_combout $end
$var wire 1 x D48|CR~regout $end
$var wire 1 y D48|Data~0_combout $end
$var wire 1 z D49|LOAD~0_combout $end
$var wire 1 { D49|SHIFT~0_combout $end
$var wire 1 | D49|LOADPOM~0_combout $end
$var wire 1 } D49|HVSYNC~0_combout $end
$var wire 1 ~ D45|Data~1_combout $end
$var wire 1 !! D49|HVSYNC~1_combout $end
$var wire 1 "! D49|HVSYNC~2_combout $end
$var wire 1 #! D49|LOAD~1_combout $end
$var wire 1 $! D49|VCLK~0_combout $end
$var wire 1 %! D46|Data [3] $end
$var wire 1 &! D46|Data [2] $end
$var wire 1 '! D46|Data [1] $end
$var wire 1 (! D46|Data [0] $end
$var wire 1 )! D48|Data [3] $end
$var wire 1 *! D48|Data [2] $end
$var wire 1 +! D48|Data [1] $end
$var wire 1 ,! D48|Data [0] $end
$var wire 1 -! D47|Data [3] $end
$var wire 1 .! D47|Data [2] $end
$var wire 1 /! D47|Data [1] $end
$var wire 1 0! D47|Data [0] $end
$var wire 1 1! D44|Data [3] $end
$var wire 1 2! D44|Data [2] $end
$var wire 1 3! D44|Data [1] $end
$var wire 1 4! D44|Data [0] $end
$var wire 1 5! D50|Data [3] $end
$var wire 1 6! D50|Data [2] $end
$var wire 1 7! D50|Data [1] $end
$var wire 1 8! D50|Data [0] $end
$var wire 1 9! D45|Data [3] $end
$var wire 1 :! D45|Data [2] $end
$var wire 1 ;! D45|Data [1] $end
$var wire 1 <! D45|Data [0] $end
$upscope $end
$upscope $end
$enddefinitions $end
#0
$dumpvars
0!
1"
0#
1$
0%
1&
1'
1(
0)
0*
0+
0,
0-
0.
0/
00
01
02
13
04
05
16
07
x8
09
1:
x;
1<
1=
1>
0?
0@
0A
1B
1C
0D
0E
1F
0G
1H
0I
1J
0K
0L
0M
0N
0O
0P
0Q
1R
1S
0T
0U
0V
0W
1X
1Y
1Z
0[
1\
0]
0^
0_
0`
0a
0b
0c
0d
0e
0f
0g
0h
0i
0j
0k
0l
0m
1n
0o
0p
0q
0r
1s
0t
0u
0v
0w
0x
0y
0z
0{
0|
0}
0~
0!!
0"!
0#!
0$!
0(!
0'!
0&!
0%!
0,!
0+!
0*!
0)!
00!
0/!
0.!
0-!
04!
03!
02!
01!
08!
07!
06!
05!
0<!
0;!
0:!
09!
$end
#5000
0"
0B
0C
08
#10000
1"
1B
1C
18
14!
16!
1T
1$!
0Y
1K
0J
1D
1%
10
1.
17
0$
#15000
0"
0B
0C
08
#20000
1"
1B
1C
18
13!
04!
18!
0T
0$!
1J
1E
0D
1/
0%
00
07
#25000
0"
0B
0C
08
#30000
1"
1B
1C
18
14!
17!
08!
1T
1$!
1Y
1L
0K
0J
1D
1%
10
17
1$
#35000
0"
0B
0C
08
#40000
1!
1"
1W
1B
1C
18
0X
0Y
0$
12!
03!
04!
18!
0T
1P
1N
0$!
1X
1J
1G
0F
0E
0D
11
1-
0/
0%
00
07
#45000
0"
0B
0C
08
#50000
1"
1B
1C
18
14!
15!
06!
07!
08!
1T
1$!
1K
0J
1F
1%
10
1,
0.
17
1I
1Q
0H
1U
1*
#55000
0"
0B
0C
08
#60000
1"
1B
1C
18
13!
04!
16!
0T
0$!
0X
1J
1D
1/
0%
00
1.
07
1O
0R
14
15
#65000
0"
0B
0C
08
#70000
1"
1B
1C
18
14!
18!
1T
1$!
1M
0L
0K
0J
1E
0D
1%
10
17
1V
12
#75000
0"
0B
0C
08
#80000
0!
1"
0W
1B
1C
18
1X
11!
02!
03!
04!
17!
08!
0T
1A
0X
1Y
0S
0P
0N
0$!
1J
1D
1+
01
0-
0/
0%
00
0Y
1$
03
07
0$
1<!
1^
0Z
#85000
0"
0B
0C
08
#90000
1"
1B
1C
18
14!
18!
1T
1$!
1K
0J
0G
0F
0E
0D
1%
10
17
0Q
0U
1S
1R
13
05
#95000
0"
0B
0C
08
#100000
1"
1B
1C
18
13!
04!
05!
06!
07!
08!
0T
0$!
1X
1J
1F
1/
0%
00
0,
0.
07
0O
04
#105000
0"
0B
0C
08
#110000
1"
1B
1C
18
14!
16!
1T
1$!
1|
1Y
1L
0K
0J
1D
1%
10
1.
17
1)
1$
0V
02
#115000
0"
0B
0C
08
#120000
1!
1"
1W
1B
1C
18
0X
0Y
0$
12!
03!
04!
18!
0T
0|
1P
1N
0$!
1J
1E
0D
11
1-
0/
0%
00
0)
07
#125000
0"
0B
0C
08
#130000
1"
1B
1C
18
14!
17!
08!
1T
1$!
1K
0J
1D
1%
10
17
1Q
1U
#135000
0"
0B
0C
08
#140000
1"
1B
1C
18
13!
04!
18!
0T
0$!
1J
1G
0F
0E
0D
1/
0%
00
07
1O
0R
14
15
#145000
0"
0B
0C
08
#150000
1"
1B
1C
18
14!
15!
06!
07!
08!
1T
1$!
0M
0L
0K
0J
1F
1%
10
1,
0.
17
0I
1V
1H
0*
12
#155000
0"
0B
0C
08
#160000
0!
1"
0W
1B
1C
18
1X
01!
02!
03!
04!
16!
0T
0A
1Y
0S
0P
0N
0$!
1J
1D
0+
01
0-
0/
0%
00
1.
1$
03
07
#165000
0"
0B
0C
08
#170000
1"
1B
1C
18
14!
18!
1T
1$!
0Y
1K
0J
1E
0D
1%
10
17
0$
0Q
0U
1S
1R
13
05
#175000
0"
0B
0C
08
#180000
1"
1B
1C
18
13!
04!
17!
08!
0T
0$!
1J
1D
1/
0%
00
07
0O
04
#185000
0"
0B
0C
08
#190000
1"
1B
1C
18
14!
18!
1T
1$!
1Y
1L
0K
0J
0G
0F
0E
0D
1%
10
17
1$
0V
02
#195000
0"
0B
0C
08
#200000
1!
1"
1W
1B
1C
18
0X
0Y
0$
12!
03!
04!
05!
06!
07!
08!
0T
1P
1N
0$!
1X
1J
1F
11
1-
0/
0%
00
0,
0.
07
#205000
0"
0B
0C
08
#210000
1"
1B
1C
18
14!
16!
1T
1$!
1K
0J
1D
1%
10
1.
17
1Q
1U
#215000
0"
0B
0C
08
#220000
1"
1B
1C
18
13!
04!
18!
0T
0$!
0X
1J
1E
0D
1/
0%
00
07
1O
0R
14
15
#225000
0"
0B
0C
08
#230000
1"
1B
1C
18
14!
17!
08!
1T
1$!
1M
0L
0K
0J
1D
1%
10
17
1V
12
#235000
0"
0B
0C
08
#240000
0!
1"
0W
1B
1C
18
1X
11!
02!
03!
04!
18!
0T
1A
0X
1Y
0S
0P
0N
0$!
1J
1G
0F
0E
0D
1+
01
0-
0/
0%
00
0Y
1$
03
07
0$
1;!
0<!
1Z
#245000
0"
0B
0C
08
#250000
1"
1B
1C
18
14!
15!
06!
07!
08!
1T
1$!
1K
0J
1F
1%
10
1,
0.
17
1I
0Q
0H
0U
1S
1R
1*
13
05
#255000
0"
0B
0C
08
#260000
1"
1B
1C
18
13!
04!
16!
0T
0$!
1X
1J
1D
1/
0%
00
1.
07
0O
04
#265000
0"
0B
0C
08
#270000
1"
1B
1C
18
14!
18!
1T
1$!
1|
1Y
1L
0K
0J
1E
0D
1%
10
17
1)
1$
0V
02
#275000
0"
0B
0C
08
#280000
1!
1"
1W
1B
1C
18
0X
0Y
0$
12!
03!
04!
17!
08!
0T
0|
1P
1N
0$!
1J
1D
11
1-
0/
0%
00
0)
07
#285000
0"
0B
0C
08
#290000
1"
1B
1C
18
14!
18!
1T
1$!
1K
0J
0G
0F
0E
0D
1%
10
17
1Q
1U
#295000
0"
0B
0C
08
#300000
1"
1B
1C
18
13!
04!
05!
06!
07!
08!
0T
0$!
1J
1F
1/
0%
00
0,
0.
07
1O
0R
14
15
#305000
0"
0B
0C
08
#310000
1"
1B
1C
18
14!
16!
1T
1$!
0M
0L
0K
0J
1D
1%
10
1.
17
1V
12
#315000
0"
0B
0C
08
#320000
0!
1"
0W
1B
1C
18
1X
01!
02!
03!
04!
18!
0T
0A
1Y
0S
0P
0N
0$!
1J
1E
0D
0+
01
0-
0/
0%
00
1$
03
07
#325000
0"
0B
0C
08
#330000
1"
1B
1C
18
14!
17!
08!
1T
1$!
0Y
1K
0J
1D
1%
10
17
0$
0Q
0U
1S
1R
13
05
#335000
0"
0B
0C
08
#340000
1"
1B
1C
18
13!
04!
18!
0T
0$!
1J
1G
0F
0E
0D
1/
0%
00
07
0O
04
#345000
0"
0B
0C
08
#350000
1"
1B
1C
18
14!
15!
06!
07!
08!
1T
1$!
1Y
1L
0K
0J
1F
1%
10
1,
0.
17
1$
0I
0V
1H
0*
02
#355000
0"
0B
0C
08
#360000
1!
1"
1W
1B
1C
18
0X
0Y
0$
12!
03!
04!
16!
0T
1P
1N
0$!
1X
1J
1D
11
1-
0/
0%
00
1.
07
#365000
0"
0B
0C
08
#370000
1"
1B
1C
18
14!
18!
1T
1$!
1K
0J
1E
0D
1%
10
17
1Q
1U
#375000
0"
0B
0C
08
#380000
1"
1B
1C
18
13!
04!
17!
08!
0T
0$!
0X
1J
1D
1/
0%
00
07
1O
0R
14
15
#385000
0"
0B
0C
08
#390000
1"
1B
1C
18
14!
18!
1T
1$!
1M
0L
0K
0J
0G
0F
0E
0D
1%
10
17
1V
12
#395000
0"
0B
0C
08
#400000
0!
1"
0W
1B
1C
18
1X
11!
02!
03!
04!
05!
06!
07!
08!
0T
1A
0X
1Y
0S
0P
0N
0$!
1J
1F
1+
01
0-
0/
0%
00
0,
0.
0Y
1$
03
07
0$
1<!
1_
0^
0Z
1`
#405000
0"
0B
0C
08
#410000
1"
1B
1C
18
14!
16!
1T
1$!
1K
0J
1D
1%
10
1.
17
0Q
0U
1S
1R
13
05
#415000
0"
0B
0C
08
#420000
1"
1B
1C
18
13!
04!
18!
0T
0$!
1X
1J
1E
0D
1/
0%
00
07
0O
04
#425000
0"
0B
0C
08
#430000
1"
1B
1C
18
14!
17!
08!
1T
1$!
1|
1Y
1L
0K
0J
1D
1%
10
17
1)
1$
0V
02
#435000
0"
0B
0C
08
#440000
1!
1"
1W
1B
1C
18
0X
0Y
0$
12!
03!
04!
18!
0T
0|
1P
1N
0$!
1J
1G
0F
0E
0D
11
1-
0/
0%
00
0)
07
#445000
0"
0B
0C
08
#450000
1"
1B
1C
18
14!
15!
06!
07!
08!
1T
1$!
1K
0J
1F
1%
10
1,
0.
17
1I
1Q
0H
1U
1*
#455000
0"
0B
0C
08
#460000
1"
1B
1C
18
13!
04!
16!
0T
0$!
1J
1D
1/
0%
00
1.
07
1O
0R
14
15
#465000
0"
0B
0C
08
#470000
1"
1B
1C
18
14!
18!
1T
1$!
0M
0L
0K
0J
1E
0D
1%
10
17
1V
12
#475000
0"
0B
0C
08
#480000
0!
1"
0W
1B
1C
18
1X
01!
02!
03!
04!
17!
08!
0T
0A
1Y
0S
0P
0N
0$!
1J
1D
0+
01
0-
0/
0%
00
1$
03
07
#485000
0"
0B
0C
08
#490000
1"
1B
1C
18
14!
18!
1T
1$!
0Y
1K
0J
0G
0F
0E
0D
1%
10
17
0$
0Q
0U
1S
1R
13
05
#495000
0"
0B
0C
08
#500000
1"
1B
1C
18
13!
04!
05!
06!
07!
08!
0T
0$!
1J
1F
1/
0%
00
0,
0.
07
0O
04
#505000
0"
0B
0C
08
#510000
1"
1B
1C
18
14!
16!
1T
1$!
1Y
1L
0K
0J
1D
1%
10
1.
17
1$
0V
02
#515000
0"
0B
0C
08
#520000
1!
1"
1W
1B
1C
18
0X
0Y
0$
12!
03!
04!
18!
0T
1P
1N
0$!
1X
1J
1E
0D
11
1-
0/
0%
00
07
#525000
0"
0B
0C
08
#530000
1"
1B
1C
18
14!
17!
08!
1T
1$!
1K
0J
1D
1%
10
17
1Q
1U
#535000
0"
0B
0C
08
#540000
1"
1B
1C
18
13!
04!
18!
0T
0$!
0X
1J
1G
0F
0E
0D
1/
0%
00
07
1O
0R
14
15
#545000
0"
0B
0C
08
#550000
1"
1B
1C
18
14!
15!
06!
07!
08!
1T
1$!
1M
0L
0K
0J
1F
1%
10
1,
0.
17
0I
1V
1H
0*
12
#555000
0"
0B
0C
08
#560000
0!
1"
0W
1B
1C
18
1X
11!
02!
03!
04!
16!
0T
1A
0X
1Y
0S
0P
0N
0$!
1J
1D
1+
01
0-
0/
0%
00
1.
0Y
1$
03
07
0$
1:!
0;!
0<!
1!!
1~
0`
0_
1Z
0~
1`
#565000
0"
0B
0C
08
#570000
1"
1B
1C
18
14!
18!
1T
1$!
1K
0J
1E
0D
1%
10
17
0Q
0U
1S
1R
13
05
#575000
0"
0B
0C
08
#580000
1"
1B
1C
18
13!
04!
17!
08!
0T
0$!
1X
1J
1D
1/
0%
00
07
0O
04
#585000
0"
0B
0C
08
#590000
1"
1B
1C
18
14!
18!
1T
1$!
1|
1Y
1L
0K
0J
0G
0F
0E
0D
1%
10
17
1)
1$
0V
02
#595000
0"
0B
0C
08
#600000
1!
1"
1W
1B
1C
18
0X
0Y
0$
12!
03!
04!
05!
06!
07!
08!
0T
0|
1P
1N
0$!
1J
1F
11
1-
0/
0%
00
0,
0.
0)
07
#605000
0"
0B
0C
08
#610000
1"
1B
1C
18
14!
16!
1T
1$!
1K
0J
1D
1%
10
1.
17
1Q
1U
#615000
0"
0B
0C
08
#620000
1"
1B
1C
18
13!
04!
18!
0T
0$!
1J
1E
0D
1/
0%
00
07
1O
0R
14
15
#625000
0"
0B
0C
08
#630000
1"
1B
1C
18
14!
17!
08!
1T
1$!
0M
0L
0K
0J
1D
1%
10
17
1V
12
#635000
0"
0B
0C
08
#640000
0!
1"
0W
1B
1C
18
1X
01!
02!
03!
04!
18!
0T
0A
1Y
0S
0P
0N
0$!
1J
1G
0F
0E
0D
0+
01
0-
0/
0%
00
1$
03
07
#645000
0"
0B
0C
08
#650000
1"
1B
1C
18
14!
15!
06!
07!
08!
1T
1$!
0Y
1K
0J
1F
1%
10
1,
0.
17
0$
1I
0Q
0H
0U
1S
1R
1*
13
05
#655000
0"
0B
0C
08
#660000
1"
1B
1C
18
13!
04!
16!
0T
0$!
1J
1D
1/
0%
00
1.
07
0O
04
#665000
0"
0B
0C
08
#670000
1"
1B
1C
18
14!
18!
1T
1$!
1Y
1L
0K
0J
1E
0D
1%
10
17
1$
0V
02
#675000
0"
0B
0C
08
#680000
1!
1"
1W
1B
1C
18
0X
0Y
0$
12!
03!
04!
17!
08!
0T
1P
1N
0$!
1X
1J
1D
11
1-
0/
0%
00
07
#685000
0"
0B
0C
08
#690000
1"
1B
1C
18
14!
18!
1T
1$!
1K
0J
0G
0F
0E
0D
1%
10
17
1Q
1U
#695000
0"
0B
0C
08
#700000
1"
1B
1C
18
13!
04!
05!
06!
07!
08!
0T
0$!
0X
1J
1F
1/
0%
00
0,
0.
07
1O
0R
14
15
#705000
0"
0B
0C
08
#710000
1"
1B
1C
18
14!
16!
1T
1$!
1M
0L
0K
0J
1D
1%
10
1.
17
1V
12
#715000
0"
0B
0C
08
#720000
0!
1"
0W
1B
1C
18
1X
11!
02!
03!
04!
18!
0T
1A
0X
1Y
0S
0P
0N
0$!
1J
1E
0D
1+
01
0-
0/
0%
00
0Y
1$
03
07
0$
1<!
1^
0Z
#725000
0"
0B
0C
08
#730000
1"
1B
1C
18
14!
17!
08!
1T
1$!
1K
0J
1D
1%
10
17
0Q
0U
1S
1R
13
05
#735000
0"
0B
0C
08
#740000
1"
1B
1C
18
13!
04!
18!
0T
0$!
1X
1J
1G
0F
0E
0D
1/
0%
00
07
0O
04
#745000
0"
0B
0C
08
#750000
1"
1B
1C
18
14!
15!
06!
07!
08!
1T
1$!
1|
1Y
1L
0K
0J
1F
1%
10
1,
0.
17
1)
1$
0I
0V
1H
0*
02
#755000
0"
0B
0C
08
#760000
1!
1"
1W
1B
1C
18
0X
0Y
0$
12!
03!
04!
16!
0T
0|
1P
1N
0$!
1J
1D
11
1-
0/
0%
00
1.
0)
07
#765000
0"
0B
0C
08
#770000
1"
1B
1C
18
14!
18!
1T
1$!
1K
0J
1E
0D
1%
10
17
1Q
1U
#775000
0"
0B
0C
08
#780000
1"
1B
1C
18
13!
04!
17!
08!
0T
0$!
1J
1D
1/
0%
00
07
1O
0R
14
15
#785000
0"
0B
0C
08
#790000
1"
1B
1C
18
14!
18!
1T
1$!
0M
0L
0K
0J
0G
0F
0E
0D
1%
10
17
1V
12
#795000
0"
0B
0C
08
#800000
0!
1"
0W
1B
1C
18
1X
01!
02!
03!
04!
05!
06!
07!
08!
0T
0A
1Y
0S
0P
0N
0$!
1J
1F
0+
01
0-
0/
0%
00
0,
0.
1$
03
07
#805000
0"
0B
0C
08
#810000
1"
1B
1C
18
14!
16!
1T
1$!
0Y
1K
0J
1D
1%
10
1.
17
0$
0Q
0U
1S
1R
13
05
#815000
0"
0B
0C
08
#820000
1"
1B
1C
18
13!
04!
18!
0T
0$!
1J
1E
0D
1/
0%
00
07
0O
04
#825000
0"
0B
0C
08
#830000
1"
1B
1C
18
14!
17!
08!
1T
1$!
1Y
1L
0K
0J
1D
1%
10
17
1$
0V
02
#835000
0"
0B
0C
08
#840000
1!
1"
1W
1B
1C
18
0X
0Y
0$
12!
03!
04!
18!
0T
1P
1N
0$!
1X
1J
1G
0F
0E
0D
11
1-
0/
0%
00
07
#845000
0"
0B
0C
08
#850000
1"
1B
1C
18
14!
15!
06!
07!
08!
1T
1$!
1K
0J
1F
1%
10
1,
0.
17
1I
1Q
0H
1U
1*
#855000
0"
0B
0C
08
#860000
1"
1B
1C
18
13!
04!
16!
0T
0$!
0X
1J
1D
1/
0%
00
1.
07
1O
0R
14
15
#865000
0"
0B
0C
08
#870000
1"
1B
1C
18
14!
18!
1T
1$!
1M
0L
0K
0J
1E
0D
1%
10
17
1V
12
#875000
0"
0B
0C
08
#880000
0!
1"
0W
1B
1C
18
1X
11!
02!
03!
04!
17!
08!
0T
1A
0X
1Y
0S
0P
0N
0$!
1J
1D
1+
01
0-
0/
0%
00
0Y
1$
03
07
0$
1;!
0<!
1Z
#885000
0"
0B
0C
08
#890000
1"
1B
1C
18
14!
18!
1T
1$!
1K
0J
0G
0F
0E
0D
1%
10
17
0Q
0U
1S
1R
13
05
#895000
0"
0B
0C
08
#900000
1"
1B
1C
18
13!
04!
05!
06!
07!
08!
0T
0$!
1X
1J
1F
1/
0%
00
0,
0.
07
0O
04
#905000
0"
0B
0C
08
#910000
1"
1B
1C
18
14!
16!
1T
1$!
1|
1Y
1L
0K
0J
1D
1%
10
1.
17
1)
1$
0V
02
#915000
0"
0B
0C
08
#920000
1!
1"
1W
1B
1C
18
0X
0Y
0$
12!
03!
04!
18!
0T
0|
1P
1N
0$!
1J
1E
0D
11
1-
0/
0%
00
0)
07
#925000
0"
0B
0C
08
#930000
1"
1B
1C
18
14!
17!
08!
1T
1$!
1K
0J
1D
1%
10
17
1Q
1U
#935000
0"
0B
0C
08
#940000
1"
1B
1C
18
13!
04!
18!
0T
0$!
1J
1G
0F
0E
0D
1/
0%
00
07
1O
0R
14
15
#945000
0"
0B
0C
08
#950000
1"
1B
1C
18
14!
15!
06!
07!
08!
1T
1$!
0M
0L
0K
0J
1F
1%
10
1,
0.
17
0I
1V
1H
0*
12
#955000
0"
0B
0C
08
#960000
0!
1"
0W
1B
1C
18
1X
01!
02!
03!
04!
16!
0T
0A
1Y
0S
0P
0N
0$!
1J
1D
0+
01
0-
0/
0%
00
1.
1$
03
07
#965000
0"
0B
0C
08
#970000
1"
1B
1C
18
14!
18!
1T
1$!
0Y
1K
0J
1E
0D
1%
10
17
0$
0Q
0U
1S
1R
13
05
#975000
0"
0B
0C
08
#980000
1"
1B
1C
18
13!
04!
17!
08!
0T
0$!
1J
1D
1/
0%
00
07
0O
04
#985000
0"
0B
0C
08
#990000
1"
1B
1C
18
14!
18!
1T
1$!
1Y
1L
0K
0J
0G
0F
0E
0D
1%
10
17
1$
0V
02
#995000
0"
0B
0C
08
