Scheme/simulation/qsim/Scheme.msim.vcd
$comment
	File created using the following command:
		vcd file Scheme.msim.vcd -direction
$end
$date
	Tue Dec 21 01:24:14 2021
$end
$version
	ModelSim Version 10.1d
$end
$timescale
	1ps
$end
$scope module Scheme_vlg_vec_tst $end
$var reg 1 ! A1 $end
$var reg 1 " B1 $end
$var reg 1 # GND $end
$var reg 1 $ inC1 $end
$var reg 1 % MHz_20 $end
$var wire 1 & out1_25 $end
$var wire 1 ' out2_5 $end
$var wire 1 ( out5 $end
$var wire 1 ) out10 $end
$var wire 1 * out20 $end
$var wire 1 + out_LA2 $end
$var wire 1 , outC0 $end
$var wire 1 - outC1 $end
$var wire 1 . outC2 $end
$var wire 1 / outC3 $end
$var wire 1 0 sampler $end
$scope module i1 $end
$var wire 1 1 gnd $end
$var wire 1 2 vcc $end
$var wire 1 3 unknown $end
$var tri1 1 4 devclrn $end
$var tri1 1 5 devpor $end
$var tri1 1 6 devoe $end
$var wire 1 7 D45|Add0~1_combout $end
$var wire 1 8 MHz_20~combout $end
$var wire 1 9 MHz_20~clkctrl_outclk $end
$var wire 1 : B1~combout $end
$var wire 1 ; D44|Data~0_combout $end
$var wire 1 < D44|Add0~0_combout $end
$var wire 1 = D44|Data~3_combout $end
$var wire 1 > D44|Data[0]~1_combout $end
$var wire 1 ? D44|Data~2_combout $end
$var wire 1 @ D44|Data~4_combout $end
$var wire 1 A GND~combout $end
$var wire 1 B D45|Data~4_combout $end
$var wire 1 C D45|Data~5_combout $end
$var wire 1 D D45|Add0~0_combout $end
$var wire 1 E D45|Data~6_combout $end
$var wire 1 F D45|Data[0]~1_combout $end
$var wire 1 G D45|Data[0]~2_combout $end
$var wire 1 H D45|Data[0]~3_combout $end
$var wire 1 I D45|Data[0]~0_combout $end
$var wire 1 J D45|CR~0_combout $end
$var wire 1 K D45|CR~regout $end
$var wire 1 L D46|Data[0]~0_combout $end
$var wire 1 M D46|Data[0]~1_combout $end
$var wire 1 N D46|Data[1]~4_combout $end
$var wire 1 O D46|Data[1]~5_combout $end
$var wire 1 P D46|Data[2]~2_combout $end
$var wire 1 Q D46|Data[2]~3_combout $end
$var wire 1 R D40|LOADCT2~0_combout $end
$var wire 1 S D44|Data[3]~clkctrl_outclk $end
$var wire 1 T D45|Data~7_combout $end
$var wire 1 U D44|Data [3] $end
$var wire 1 V D44|Data [2] $end
$var wire 1 W D44|Data [1] $end
$var wire 1 X D44|Data [0] $end
$var wire 1 Y D45|Data [3] $end
$var wire 1 Z D45|Data [2] $end
$var wire 1 [ D45|Data [1] $end
$var wire 1 \ D45|Data [0] $end
$var wire 1 ] D46|Data [3] $end
$var wire 1 ^ D46|Data [2] $end
$var wire 1 _ D46|Data [1] $end
$var wire 1 ` D46|Data [0] $end
$upscope $end
$upscope $end
$enddefinitions $end
#0
$dumpvars
1!
1"
0#
1$
0%
0&
0'
0(
0)
0*
1+
0,
0-
0.
0/
x0
01
12
x3
14
15
16
07
08
09
1:
1;
0<
0=
1>
0?
0@
0A
0B
0C
0D
0E
0F
0G
1H
0I
0J
0K
0L
0M
0N
0O
0P
0Q
0R
0S
0T
0X
0W
0V
0U
0\
0[
0Z
0Y
0`
0_
0^
z]
$end
#300
1%
18
19
00
1*
1X
1?
0;
1)
#600
0%
08
09
10
0*
#900
1%
18
19
00
1*
1W
0X
1;
1(
0)
#1200
0%
08
09
10
0*
#1500
1%
18
19
00
1*
1X
0?
1<
0;
1)
1=
#1800
0%
08
09
10
0*
#2100
1%
18
19
00
1*
0W
1V
0X
0<
1@
0=
1;
0(
1'
0)
0@
1=
#2400
0%
08
09
10
0*
#2700
1%
18
19
00
1*
1X
1?
0;
1)
#3000
0%
08
09
10
0*
#3300
1%
18
19
00
1*
1W
0X
1;
1(
0)
#3600
0%
08
09
10
0*
#3900
1%
18
19
00
1*
1X
0?
1<
0;
1)
1@
0=
#4200
0%
08
09
10
0*
#4500
1%
18
19
00
1*
1U
0W
0V
0X
1S
0<
1=
1;
1&
0(
0'
0)
0=
1\
0H
1B
1,
1C
#4800
0%
08
09
10
0*
#5100
1%
18
19
00
1*
1X
1?
0;
1)
#5400
0%
08
09
10
0*
#5700
1%
18
19
00
1*
1W
0X
1;
1(
0)
#6000
0%
08
09
10
0*
#6300
1%
18
19
00
1*
1X
0?
1<
0;
1)
1=
#6600
0%
08
09
10
0*
#6900
1%
18
19
00
1*
0W
1V
0X
0<
0@
0=
1;
0(
1'
0)
1@
1=
#7200
0%
08
09
10
0*
#7500
1%
18
19
00
1*
1X
1?
0;
1)
#7800
0%
08
09
10
0*
#8100
1%
18
19
00
1*
1W
0X
1;
1(
0)
#8400
0%
08
09
10
0*
#8700
1%
18
19
00
1*
1X
0?
0>
1<
0;
1)
0=
0@
#9000
0%
08
09
10
0*
#9300
1%
18
19
00
1*
0U
0W
0V
0X
0S
1>
0<
1;
0&
0(
0'
0)
#9600
0%
08
09
10
0*
#9900
1%
18
19
00
1*
1X
1?
0;
1)
#10200
0%
08
09
10
0*
#10500
1%
18
19
00
1*
1W
0X
1;
1(
0)
#10800
0%
08
09
10
0*
#11100
1%
18
19
00
1*
1X
0?
1<
0;
1)
1=
#11400
0%
08
09
10
0*
#11700
1%
18
19
00
1*
0W
1V
0X
0<
1@
0=
1;
0(
1'
0)
0@
1=
#12000
0%
08
09
10
0*
#12300
1%
18
19
00
1*
1X
1?
0;
1)
#12600
0%
08
09
10
0*
#12900
1%
18
19
00
1*
1W
0X
1;
1(
0)
#13200
0%
08
09
10
0*
#13500
1%
18
19
00
1*
1X
0?
1<
0;
1)
1@
0=
#13800
0%
08
09
10
0*
#14100
1%
18
19
00
1*
1U
0W
0V
0X
1S
0<
1=
1;
1&
0(
0'
0)
0=
0\
1[
1H
0,
1-
#14400
0%
08
09
10
0*
#14700
1%
18
19
00
1*
1X
1?
0;
1)
#15000
0%
08
09
10
0*
#15300
1%
18
19
00
1*
1W
0X
1;
1(
0)
#15600
0%
08
09
10
0*
#15900
1%
18
19
00
1*
1X
0?
1<
0;
1)
1=
#16200
0%
08
09
10
0*
#16500
1%
18
19
00
1*
0W
1V
0X
0<
0@
0=
1;
0(
1'
0)
1@
1=
#16800
0%
08
09
10
0*
#17100
1%
18
19
00
1*
1X
1?
0;
1)
#17400
0%
08
09
10
0*
#17700
1%
18
19
00
1*
1W
0X
1;
1(
0)
#18000
0%
08
09
10
0*
#18300
1%
18
19
00
1*
1X
0?
0>
1<
0;
1)
0=
0@
#18600
0%
08
09
10
0*
#18900
1%
18
19
00
1*
0U
0W
0V
0X
0S
1>
0<
1;
0&
0(
0'
0)
#19200
0%
08
09
10
0*
#19500
1%
18
19
00
1*
1X
1?
0;
1)
#19800
0%
08
09
10
0*
#20100
1%
18
19
00
1*
1W
0X
1;
1(
0)
#20400
0%
08
09
10
0*
#20700
1%
18
19
00
1*
1X
0?
1<
0;
1)
1=
#21000
0%
08
09
10
0*
#21300
1%
18
19
00
1*
0W
1V
0X
0<
1@
0=
1;
0(
1'
0)
0@
1=
#21600
0%
08
09
10
0*
#21900
1%
18
19
00
1*
1X
1?
0;
1)
#22200
0%
08
09
10
0*
#22500
1%
18
19
00
1*
1W
0X
1;
1(
0)
#22800
0%
08
09
10
0*
#23100
1%
18
19
00
1*
1X
0?
1<
0;
1)
1@
0=
#23400
0%
08
09
10
0*
#23700
1%
18
19
00
1*
1U
0W
0V
0X
1S
0<
1=
1;
1&
0(
0'
0)
0=
1\
0H
1D
0B
1,
1E
0C
#24000
0%
08
09
10
0*
#24300
1%
18
19
00
1*
1X
1?
0;
1)
#24600
0%
08
09
10
0*
#24900
1%
18
19
00
1*
1W
0X
1;
1(
0)
#25200
0%
08
09
10
0*
#25500
1%
18
19
00
1*
1X
0?
1<
0;
1)
1=
#25800
0%
08
09
10
0*
#26100
1%
18
19
00
1*
0W
1V
0X
0<
0@
0=
1;
0(
1'
0)
1@
1=
#26400
0%
08
09
10
0*
#26700
1%
18
19
00
1*
1X
1?
0;
1)
#27000
0%
08
09
10
0*
#27300
1%
18
19
00
1*
1W
0X
1;
1(
0)
#27600
0%
08
09
10
0*
#27900
1%
18
19
00
1*
1X
0?
0>
1<
0;
1)
0=
0@
#28200
0%
08
09
10
0*
#28500
1%
18
19
00
1*
0U
0W
0V
0X
0S
1>
0<
1;
0&
0(
0'
0)
#28800
0%
08
09
10
0*
#29100
1%
18
19
00
1*
1X
1?
0;
1)
#29400
0%
08
09
10
0*
#29700
1%
18
19
00
1*
1W
0X
1;
1(
0)
#30000
0%
08
09
10
0*
#30300
1%
18
19
00
1*
1X
0?
1<
0;
1)
1=
#30600
0%
08
09
10
0*
#30900
1%
18
19
00
1*
0W
1V
0X
0<
1@
0=
1;
0(
1'
0)
0@
1=
#31200
0%
08
09
10
0*
#31500
1%
18
19
00
1*
1X
1?
0;
1)
#31800
0%
08
09
10
0*
#32100
1%
18
19
00
1*
1W
0X
1;
1(
0)
#32400
0%
08
09
10
0*
#32700
1%
18
19
00
1*
1X
0?
1<
0;
1)
1@
0=
#33000
0%
08
09
10
0*
#33300
1%
18
19
00
1*
1U
0W
0V
0X
1S
0<
1=
1;
1&
0(
0'
0)
0=
0\
1Z
0[
1H
0,
1.
0-
#33600
0%
08
09
10
0*
#33900
1%
18
19
00
1*
1X
1?
0;
1)
#34200
0%
08
09
10
0*
#34500
1%
18
19
00
1*
1W
0X
1;
1(
0)
#34800
0%
08
09
10
0*
#35100
1%
18
19
00
1*
1X
0?
1<
0;
1)
1=
#35400
0%
08
09
10
0*
#35700
1%
18
19
00
1*
0W
1V
0X
0<
0@
0=
1;
0(
1'
0)
1@
1=
#36000
0%
08
09
10
0*
#36300
1%
18
19
00
1*
1X
1?
0;
1)
#36600
0%
08
09
10
0*
#36900
1%
18
19
00
1*
1W
0X
1;
1(
0)
#37200
0%
08
09
10
0*
#37500
1%
18
19
00
1*
1X
0?
0>
1<
0;
1)
0=
0@
#37800
0%
08
09
10
0*
#38100
1%
18
19
00
1*
0U
0W
0V
0X
0S
1>
0<
1;
0&
0(
0'
0)
#38400
0%
08
09
10
0*
#38700
1%
18
19
00
1*
1X
1?
0;
1)
#39000
0%
08
09
10
0*
#39300
1%
18
19
00
1*
1W
0X
1;
1(
0)
#39600
0%
08
09
10
0*
#39900
1%
18
19
00
1*
1X
0?
1<
0;
1)
1=
#40200
0%
08
09
10
0*
#40500
1%
18
19
00
1*
0W
1V
0X
0<
1@
0=
1;
0(
1'
0)
0@
1=
#40800
0%
08
09
10
0*
#41100
1%
18
19
00
1*
1X
1?
0;
1)
#41400
0%
08
09
10
0*
#41700
1%
18
19
00
1*
1W
0X
1;
1(
0)
#42000
0%
08
09
10
0*
#42300
1%
18
19
00
1*
1X
0?
1<
0;
1)
1@
0=
#42600
0%
08
09
10
0*
#42900
1%
18
19
00
1*
1U
0W
0V
0X
1S
0<
1=
1;
1&
0(
0'
0)
0=
1\
0H
1B
1,
1C
#43200
0%
08
09
10
0*
#43500
1%
18
19
00
1*
1X
1?
0;
1)
#43800
0%
08
09
10
0*
#44100
1%
18
19
00
1*
1W
0X
1;
1(
0)
#44400
0%
08
09
10
0*
#44700
1%
18
19
00
1*
1X
0?
1<
0;
1)
1=
#45000
0%
08
09
10
0*
#45300
1%
18
19
00
1*
0W
1V
0X
0<
0@
0=
1;
0(
1'
0)
1@
1=
#45600
0%
08
09
10
0*
#45900
1%
18
19
00
1*
1X
1?
0;
1)
#46200
0%
08
09
10
0*
#46500
1%
18
19
00
1*
1W
0X
1;
1(
0)
#46800
0%
08
09
10
0*
#47100
1%
18
19
00
1*
1X
0?
0>
1<
0;
1)
0=
0@
#47400
0%
08
09
10
0*
#47700
1%
18
19
00
1*
0U
0W
0V
0X
0S
1>
0<
1;
0&
0(
0'
0)
#48000
0%
08
09
10
0*
#48300
1%
18
19
00
1*
1X
1?
0;
1)
#48600
0%
08
09
10
0*
#48900
1%
18
19
00
1*
1W
0X
1;
1(
0)
#49200
0%
08
09
10
0*
#49500
1%
18
19
00
1*
1X
0?
1<
0;
1)
1=
#49800
0%
08
09
10
0*
#50100
1%
18
19
00
1*
0W
1V
0X
0<
1@
0=
1;
0(
1'
0)
0@
1=
#50400
0%
08
09
10
0*
#50700
1%
18
19
00
1*
1X
1?
0;
1)
#51000
0%
08
09
10
0*
#51300
1%
18
19
00
1*
1W
0X
1;
1(
0)
#51600
0%
08
09
10
0*
#51900
1%
18
19
00
1*
1X
0?
1<
0;
1)
1@
0=
#52200
0%
08
09
10
0*
#52500
1%
18
19
00
1*
1U
0W
0V
0X
1S
0<
1=
1;
1&
0(
0'
0)
0=
0\
1[
1H
0,
1-
#52800
0%
08
09
10
0*
#53100
1%
18
19
00
1*
1X
1?
0;
1)
#53400
0%
08
09
10
0*
#53700
1%
18
19
00
1*
1W
0X
1;
1(
0)
#54000
0%
08
09
10
0*
#54300
1%
18
19
00
1*
1X
0?
1<
0;
1)
1=
#54600
0%
08
09
10
0*
#54900
1%
18
19
00
1*
0W
1V
0X
0<
0@
0=
1;
0(
1'
0)
1@
1=
#55200
0%
08
09
10
0*
#55500
1%
18
19
00
1*
1X
1?
0;
1)
#55800
0%
08
09
10
0*
#56100
1%
18
19
00
1*
1W
0X
1;
1(
0)
#56400
0%
08
09
10
0*
#56700
1%
18
19
00
1*
1X
0?
0>
1<
0;
1)
0=
0@
#57000
0%
08
09
10
0*
#57300
1%
18
19
00
1*
0U
0W
0V
0X
0S
1>
0<
1;
0&
0(
0'
0)
#57600
0%
08
09
10
0*
#57900
1%
18
19
00
1*
1X
1?
0;
1)
#58200
0%
08
09
10
0*
#58500
1%
18
19
00
1*
1W
0X
1;
1(
0)
#58800
0%
08
09
10
0*
#59100
1%
18
19
00
1*
1X
0?
1<
0;
1)
1=
#59400
0%
08
09
10
0*
#59700
1%
18
19
00
1*
0W
1V
0X
0<
1@
0=
1;
0(
1'
0)
0@
1=
#60000
0%
08
09
10
0*
#60300
1%
18
19
00
1*
1X
1?
0;
1)
#60600
0%
08
09
10
0*
#60900
1%
18
19
00
1*
1W
0X
1;
1(
0)
#61200
0%
08
09
10
0*
#61500
1%
18
19
00
1*
1X
0?
1<
0;
1)
1@
0=
#61800
0%
08
09
10
0*
#62100
1%
18
19
00
1*
1U
0W
0V
0X
1S
0<
1=
1;
1&
0(
0'
0)
0=
1\
0H
1F
0D
0B
17
1,
0E
0C
1T
#62400
0%
08
09
10
0*
#62700
1%
18
19
00
1*
1X
1?
0;
1)
#63000
0%
08
09
10
0*
#63300
1%
18
19
00
1*
1W
0X
1;
1(
0)
#63600
0%
08
09
10
0*
#63900
1%
18
19
00
1*
1X
0?
1<
0;
1)
1=
#64200
0%
08
09
10
0*
#64500
1%
18
19
00
1*
0W
1V
0X
0<
0@
0=
1;
0(
1'
0)
1@
1=
#64800
0%
08
09
10
0*
#65100
1%
18
19
00
1*
1X
1?
0;
1)
#65400
0%
08
09
10
0*
#65700
1%
18
19
00
1*
1W
0X
1;
1(
0)
#66000
0%
08
09
10
0*
#66300
1%
18
19
00
1*
1X
0?
0>
1<
0;
1)
0=
0@
#66600
0%
08
09
10
0*
#66900
1%
18
19
00
1*
0U
0W
0V
0X
0S
1>
0<
1;
0&
0(
0'
0)
#67200
0%
08
09
10
0*
#67500
1%
18
19
00
1*
1X
1?
0;
1)
#67800
0%
08
09
10
0*
#68100
1%
18
19
00
1*
1W
0X
1;
1(
0)
#68400
0%
08
09
10
0*
#68700
1%
18
19
00
1*
1X
0?
1<
0;
1)
1=
#69000
0%
08
09
10
0*
#69300
1%
18
19
00
1*
0W
1V
0X
0<
1@
0=
1;
0(
1'
0)
0@
1=
#69600
0%
08
09
10
0*
#69900
1%
18
19
00
1*
1X
1?
0;
1)
#70200
0%
08
09
10
0*
#70500
1%
18
19
00
1*
1W
0X
1;
1(
0)
#70800
0%
08
09
10
0*
#71100
1%
18
19
00
1*
1X
0?
1<
0;
1)
1@
0=
#71400
0%
08
09
10
0*
#71700
1%
18
19
00
1*
1U
0W
0V
0X
1S
0<
1=
1;
1&
0(
0'
0)
0=
1Y
0\
0Z
0[
1J
1G
1H
0F
1/
0,
0.
0-
0T
0H
0J
0G
1T
1H
#72000
0%
08
09
10
0*
#72300
1%
18
19
00
1*
1X
1?
0;
1)
#72600
0%
08
09
10
0*
#72900
1%
18
19
00
1*
1W
0X
1;
1(
0)
#73200
0%
08
09
10
0*
#73500
1%
18
19
00
1*
1X
0?
1<
0;
1)
1=
#73800
0%
08
09
10
0*
#74100
1%
18
19
00
1*
0W
1V
0X
0<
0@
0=
1;
0(
1'
0)
1@
1=
#74400
0%
08
09
10
0*
#74700
1%
18
19
00
1*
1X
1?
0;
1)
#75000
0%
08
09
10
0*
#75300
1%
18
19
00
1*
1W
0X
1;
1(
0)
#75600
0%
08
09
10
0*
#75900
1%
18
19
00
1*
1X
0?
0>
1<
0;
1)
0=
0@
#76200
0%
08
09
10
0*
#76500
1%
18
19
00
1*
0U
0W
0V
0X
0S
1>
0<
1;
0&
0(
0'
0)
#76800
0%
08
09
10
0*
#77100
1%
18
19
00
1*
1X
1?
0;
1)
#77400
0%
08
09
10
0*
#77700
1%
18
19
00
1*
1W
0X
1;
1(
0)
#78000
0%
08
09
10
0*
#78300
1%
18
19
00
1*
1X
0?
1<
0;
1)
1=
#78600
0%
08
09
10
0*
#78900
1%
18
19
00
1*
0W
1V
0X
0<
1@
0=
1;
0(
1'
0)
0@
1=
#79200
0%
08
09
10
0*
#79500
1%
18
19
00
1*
1X
1?
0;
1)
#79800
0%
08
09
10
0*
#80100
1%
18
19
00
1*
1W
0X
1;
1(
0)
#80400
0%
08
09
10
0*
#80700
1%
18
19
00
1*
1X
0?
1<
0;
1)
1@
0=
#81000
0%
08
09
10
0*
#81300
1%
18
19
00
1*
1U
0W
0V
0X
1S
0<
1=
1;
1&
0(
0'
0)
0=
1\
0H
1B
1,
1C
#81600
0%
08
09
10
0*
#81900
1%
18
19
00
1*
1X
1?
0;
1)
#82200
0%
08
09
10
0*
#82500
1%
18
19
00
1*
1W
0X
1;
1(
0)
#82800
0%
08
09
10
0*
#83100
1%
18
19
00
1*
1X
0?
1<
0;
1)
1=
#83400
0%
08
09
10
0*
#83700
1%
18
19
00
1*
0W
1V
0X
0<
0@
0=
1;
0(
1'
0)
1@
1=
#84000
0%
08
09
10
0*
#84300
1%
18
19
00
1*
1X
1?
0;
1)
#84600
0%
08
09
10
0*
#84900
1%
18
19
00
1*
1W
0X
1;
1(
0)
#85200
0%
08
09
10
0*
#85500
1%
18
19
00
1*
1X
0?
0>
1<
0;
1)
0=
0@
#85800
0%
08
09
10
0*
#86100
1%
18
19
00
1*
0U
0W
0V
0X
0S
1>
0<
1;
0&
0(
0'
0)
#86400
0%
08
09
10
0*
#86700
1%
18
19
00
1*
1X
1?
0;
1)
#87000
0%
08
09
10
0*
#87300
1%
18
19
00
1*
1W
0X
1;
1(
0)
#87600
0%
08
09
10
0*
#87900
1%
18
19
00
1*
1X
0?
1<
0;
1)
1=
#88200
0%
08
09
10
0*
#88500
1%
18
19
00
1*
0W
1V
0X
0<
1@
0=
1;
0(
1'
0)
0@
1=
#88800
0%
08
09
10
0*
#89100
1%
18
19
00
1*
1X
1?
0;
1)
#89400
0%
08
09
10
0*
#89700
1%
18
19
00
1*
1W
0X
1;
1(
0)
#90000
0%
08
09
10
0*
#90300
1%
18
19
00
1*
1X
0?
1<
0;
1)
1@
0=
#90600
0%
08
09
10
0*
#90900
1%
18
19
00
1*
1U
0W
0V
0X
1S
0<
1=
1;
1&
0(
0'
0)
0=
0\
1[
1H
0,
1-
#91200
0%
08
09
10
0*
#91500
1%
18
19
00
1*
1X
1?
0;
1)
#91800
0%
08
09
10
0*
#92100
1%
18
19
00
1*
1W
0X
1;
1(
0)
#92400
0%
08
09
10
0*
#92700
1%
18
19
00
1*
1X
0?
1<
0;
1)
1=
#93000
0%
08
09
10
0*
#93300
1%
18
19
00
1*
0W
1V
0X
0<
0@
0=
1;
0(
1'
0)
1@
1=
#93600
0%
08
09
10
0*
#93900
1%
18
19
00
1*
1X
1?
0;
1)
#94200
0%
08
09
10
0*
#94500
1%
18
19
00
1*
1W
0X
1;
1(
0)
#94800
0%
08
09
10
0*
#95100
1%
18
19
00
1*
1X
0?
0>
1<
0;
1)
0=
0@
#95400
0%
08
09
10
0*
#95700
1%
18
19
00
1*
0U
0W
0V
0X
0S
1>
0<
1;
0&
0(
0'
0)
#96000
0%
08
09
10
0*
#96300
1%
18
19
00
1*
1X
1?
0;
1)
#96600
0%
08
09
10
0*
#96900
1%
18
19
00
1*
1W
0X
1;
1(
0)
#97200
0%
08
09
10
0*
#97500
1%
18
19
00
1*
1X
0?
1<
0;
1)
1=
#97800
0%
08
09
10
0*
#98100
1%
18
19
00
1*
0W
1V
0X
0<
1@
0=
1;
0(
1'
0)
0@
1=
#98400
0%
08
09
10
0*
#98700
1%
18
19
00
1*
1X
1?
0;
1)
#99000
0%
08
09
10
0*
#99300
1%
18
19
00
1*
1W
0X
1;
1(
0)
#99600
0%
08
09
10
0*
#99900
1%
18
19
00
1*
1X
0?
1<
0;
1)
1@
0=
#100200
0%
08
09
10
0*
#100500
1%
18
19
00
1*
1U
0W
0V
0X
1S
0<
1=
1;
1&
0(
0'
0)
0=
1\
0H
1D
0B
1,
1E
0C
#100800
0%
08
09
10
0*
#101100
1%
18
19
00
1*
1X
1?
0;
1)
#101400
0%
08
09
10
0*
#101700
1%
18
19
00
1*
1W
0X
1;
1(
0)
#102000
0%
08
09
10
0*
#102300
1%
18
19
00
1*
1X
0?
1<
0;
1)
1=
#102600
0%
08
09
10
0*
#102900
1%
18
19
00
1*
0W
1V
0X
0<
0@
0=
1;
0(
1'
0)
1@
1=
#103200
0%
08
09
10
0*
#103500
1%
18
19
00
1*
1X
1?
0;
1)
#103800
0%
08
09
10
0*
#104100
1%
18
19
00
1*
1W
0X
1;
1(
0)
#104400
0%
08
09
10
0*
#104700
1%
18
19
00
1*
1X
0?
0>
1<
0;
1)
0=
0@
#105000
0%
08
09
10
0*
#105300
1%
18
19
00
1*
0U
0W
0V
0X
0S
1>
0<
1;
0&
0(
0'
0)
#105600
0%
08
09
10
0*
#105900
1%
18
19
00
1*
1X
1?
0;
1)
#106200
0%
08
09
10
0*
#106500
1%
18
19
00
1*
1W
0X
1;
1(
0)
#106800
0%
08
09
10
0*
#107100
1%
18
19
00
1*
1X
0?
1<
0;
1)
1=
#107400
0%
08
09
10
0*
#107700
1%
18
19
00
1*
0W
1V
0X
0<
1@
0=
1;
0(
1'
0)
0@
1=
#108000
0%
08
09
10
0*
#108300
1%
18
19
00
1*
1X
1?
0;
1)
#108600
0%
08
09
10
0*
#108900
1%
18
19
00
1*
1W
0X
1;
1(
0)
#109200
0%
08
09
10
0*
#109500
1%
18
19
00
1*
1X
0?
1<
0;
1)
1@
0=
#109800
0%
08
09
10
0*
#110100
1%
18
19
00
1*
1U
0W
0V
0X
1S
0<
1=
1;
1&
0(
0'
0)
0=
0\
1Z
0[
1H
0,
1.
0-
#110400
0%
08
09
10
0*
#110700
1%
18
19
00
1*
1X
1?
0;
1)
#111000
0%
08
09
10
0*
#111300
1%
18
19
00
1*
1W
0X
1;
1(
0)
#111600
0%
08
09
10
0*
#111900
1%
18
19
00
1*
1X
0?
1<
0;
1)
1=
#112200
0%
08
09
10
0*
#112500
1%
18
19
00
1*
0W
1V
0X
0<
0@
0=
1;
0(
1'
0)
1@
1=
#112800
0%
08
09
10
0*
#113100
1%
18
19
00
1*
1X
1?
0;
1)
#113400
0%
08
09
10
0*
#113700
1%
18
19
00
1*
1W
0X
1;
1(
0)
#114000
0%
08
09
10
0*
#114300
1%
18
19
00
1*
1X
0?
0>
1<
0;
1)
0=
0@
#114600
0%
08
09
10
0*
#114900
1%
18
19
00
1*
0U
0W
0V
0X
0S
1>
0<
1;
0&
0(
0'
0)
#115200
0%
08
09
10
0*
#115500
1%
18
19
00
1*
1X
1?
0;
1)
#115800
0%
08
09
10
0*
#116100
1%
18
19
00
1*
1W
0X
1;
1(
0)
#116400
0%
08
09
10
0*
#116700
1%
18
19
00
1*
1X
0?
1<
0;
1)
1=
#117000
0%
08
09
10
0*
#117300
1%
18
19
00
1*
0W
1V
0X
0<
1@
0=
1;
0(
1'
0)
0@
1=
#117600
0%
08
09
10
0*
#117900
1%
18
19
00
1*
1X
1?
0;
1)
#118200
0%
08
09
10
0*
#118500
1%
18
19
00
1*
1W
0X
1;
1(
0)
#118800
0%
08
09
10
0*
#119100
1%
18
19
00
1*
1X
0?
1<
0;
1)
1@
0=
#119400
0%
08
09
10
0*
#119700
1%
18
19
00
1*
1U
0W
0V
0X
1S
0<
1=
1;
1&
0(
0'
0)
0=
1\
0H
1B
1,
1C
#120000
0%
08
09
10
0*
#120300
1%
18
19
00
1*
1X
1?
0;
1)
#120600
0%
08
09
10
0*
#120900
1%
18
19
00
1*
1W
0X
1;
1(
0)
#121200
0%
08
09
10
0*
#121500
1%
18
19
00
1*
1X
0?
1<
0;
1)
1=
#121800
0%
08
09
10
0*
#122100
1%
18
19
00
1*
0W
1V
0X
0<
0@
0=
1;
0(
1'
0)
1@
1=
#122400
0%
08
09
10
0*
#122700
1%
18
19
00
1*
1X
1?
0;
1)
#123000
0%
08
09
10
0*
#123300
1%
18
19
00
1*
1W
0X
1;
1(
0)
#123600
0%
08
09
10
0*
#123900
1%
18
19
00
1*
1X
0?
0>
1<
0;
1)
0=
0@
#124200
0%
08
09
10
0*
#124500
1%
18
19
00
1*
0U
0W
0V
0X
0S
1>
0<
1;
0&
0(
0'
0)
#124800
0%
08
09
10
0*
#125100
1%
18
19
00
1*
1X
1?
0;
1)
#125400
0%
08
09
10
0*
#125700
1%
18
19
00
1*
1W
0X
1;
1(
0)
#126000
0%
08
09
10
0*
#126300
1%
18
19
00
1*
1X
0?
1<
0;
1)
1=
#126600
0%
08
09
10
0*
#126900
1%
18
19
00
1*
0W
1V
0X
0<
1@
0=
1;
0(
1'
0)
0@
1=
#127200
0%
08
09
10
0*
#127500
1%
18
19
00
1*
1X
1?
0;
1)
#127800
0%
08
09
10
0*
#128100
1%
18
19
00
1*
1W
0X
1;
1(
0)
#128400
0%
08
09
10
0*
#128700
1%
18
19
00
1*
1X
0?
1<
0;
1)
1@
0=
#129000
0%
08
09
10
0*
#129300
1%
18
19
00
1*
1U
0W
0V
0X
1S
0<
1=
1;
1&
0(
0'
0)
0=
0\
1[
1H
0,
1-
#129600
0%
08
09
10
0*
#129900
1%
18
19
00
1*
1X
1?
0;
1)
#130200
0%
08
09
10
0*
#130500
1%
18
19
00
1*
1W
0X
1;
1(
0)
#130800
0%
08
09
10
0*
#131100
1%
18
19
00
1*
1X
0?
1<
0;
1)
1=
#131400
0%
08
09
10
0*
#131700
1%
18
19
00
1*
0W
1V
0X
0<
0@
0=
1;
0(
1'
0)
1@
1=
#132000
0%
08
09
10
0*
#132300
1%
18
19
00
1*
1X
1?
0;
1)
#132600
0%
08
09
10
0*
#132900
1%
18
19
00
1*
1W
0X
1;
1(
0)
#133200
0%
08
09
10
0*
#133500
1%
18
19
00
1*
1X
0?
0>
1<
0;
1)
0=
0@
#133800
0%
08
09
10
0*
#134100
1%
18
19
00
1*
0U
0W
0V
0X
0S
1>
0<
1;
0&
0(
0'
0)
#134400
0%
08
09
10
0*
#134700
1%
18
19
00
1*
1X
1?
0;
1)
#135000
0%
08
09
10
0*
#135300
1%
18
19
00
1*
1W
0X
1;
1(
0)
#135600
0%
08
09
10
0*
#135900
1%
18
19
00
1*
1X
0?
1<
0;
1)
1=
#136200
0%
08
09
10
0*
#136500
1%
18
19
00
1*
0W
1V
0X
0<
1@
0=
1;
0(
1'
0)
0@
1=
#136800
0%
08
09
10
0*
#137100
1%
18
19
00
1*
1X
1?
0;
1)
#137400
0%
08
09
10
0*
#137700
1%
18
19
00
1*
1W
0X
1;
1(
0)
#138000
0%
08
09
10
0*
#138300
1%
18
19
00
1*
1X
0?
1<
0;
1)
1@
0=
#138600
0%
08
09
10
0*
#138900
1%
18
19
00
1*
1U
0W
0V
0X
1S
0<
1=
1;
1&
0(
0'
0)
0=
1\
0H
1F
0D
0B
07
1,
1J
1G
0E
0C
0T
#139200
0%
08
09
10
0*
#139500
1%
18
19
00
1*
1X
1?
0;
1)
#139800
0%
08
09
10
0*
#140100
1%
18
19
00
1*
1W
0X
1;
1(
0)
#140400
0%
08
09
10
0*
#140700
1%
18
19
00
1*
1X
0?
1<
0;
1)
1=
#141000
0%
08
09
10
0*
#141300
1%
18
19
00
1*
0W
1V
0X
0<
0@
0=
1;
0(
1'
0)
1@
1=
#141600
0%
08
09
10
0*
#141900
1%
18
19
00
1*
1X
1?
0;
1)
#142200
0%
08
09
10
0*
#142500
1%
18
19
00
1*
1W
0X
1;
1(
0)
#142800
0%
08
09
10
0*
#143100
1%
18
19
00
1*
1X
0?
0>
1<
0;
1)
0=
0@
#143400
0%
08
09
10
0*
#143700
1%
18
19
00
1*
0U
0W
0V
0X
0S
1>
0<
1;
0&
0(
0'
0)
#144000
0%
08
09
10
0*
#144300
1%
18
19
00
1*
1X
1?
0;
1)
#144600
0%
08
09
10
0*
#144900
1%
18
19
00
1*
1W
0X
1;
1(
0)
#145200
0%
08
09
10
0*
#145500
1%
18
19
00
1*
1X
0?
1<
0;
1)
1=
#145800
0%
08
09
10
0*
#146100
1%
18
19
00
1*
0W
1V
0X
0<
1@
0=
1;
0(
1'
0)
0@
1=
#146400
0%
08
09
10
0*
#146700
1%
18
19
00
1*
1X
1?
0;
1)
#147000
0%
08
09
10
0*
#147300
1%
18
19
00
1*
1W
0X
1;
1(
0)
#147600
0%
08
09
10
0*
