Scheme/simulation/qsim/Scheme.msim.vcd
$comment
	File created using the following command:
		vcd file Scheme.msim.vcd -direction
$end
$date
	Tue Dec 21 18:42:09 2021
$end
$version
	ModelSim Version 10.1d
$end
$timescale
	1ps
$end
$scope module Scheme_vlg_vec_tst $end
$var reg 1 ! A1 $end
$var reg 1 " ACCESS $end
$var reg 1 # B1 $end
$var reg 1 $ C1 $end
$var reg 1 % GND $end
$var reg 1 & M20 $end
$var reg 1 ' MODSEL $end
$var wire 1 ( M1 $end
$var wire 1 ) M1_25 $end
$var wire 1 * M2 $end
$var wire 1 + M2_5 $end
$var wire 1 , M4 $end
$var wire 1 - M5 $end
$var wire 1 . M10 $end
$var wire 1 / M_2_5 $end
$var wire 1 0 nCAS $end
$var wire 1 1 nF1T $end
$var wire 1 2 nF2T $end
$var wire 1 3 nRAS $end
$var wire 1 4 sampler $end
$scope module i1 $end
$var wire 1 5 gnd $end
$var wire 1 6 vcc $end
$var wire 1 7 unknown $end
$var tri1 1 8 devclrn $end
$var tri1 1 9 devpor $end
$var tri1 1 : devoe $end
$var wire 1 ; GND~combout $end
$var wire 1 < M20~combout $end
$var wire 1 = M20~clkctrl_outclk $end
$var wire 1 > C1~combout $end
$var wire 1 ? D50|Data~2_combout $end
$var wire 1 @ D50|Data~3_combout $end
$var wire 1 A D50|Data~4_combout $end
$var wire 1 B D50|Data[2]~0_combout $end
$var wire 1 C D50|Add0~0_combout $end
$var wire 1 D D50|Data~1_combout $end
$var wire 1 E D50|Data[3]~clkctrl_outclk $end
$var wire 1 F inst6|RI~0_combout $end
$var wire 1 G inst6|RI~reg0_regout $end
$var wire 1 H inst6|RF~0_combout $end
$var wire 1 I inst6|RF~regout $end
$var wire 1 J B1~combout $end
$var wire 1 K D44|Data~0_combout $end
$var wire 1 L D44|Data~1_combout $end
$var wire 1 M D44|Data~2_combout $end
$var wire 1 N D44|Add0~0_combout $end
$var wire 1 O D44|Data~3_combout $end
$var wire 1 P D44|Data[1]~clkctrl_outclk $end
$var wire 1 Q A1~combout $end
$var wire 1 R D26|RF~0_combout $end
$var wire 1 S D26|RF~feeder_combout $end
$var wire 1 T D26|RF~regout $end
$var wire 1 U D25|RF~feeder_combout $end
$var wire 1 V D25|RF~regout $end
$var wire 1 W D26|RI~0_combout $end
$var wire 1 X D26|RI~reg0_regout $end
$var wire 1 Y D39~combout $end
$var wire 1 Z D24~combout $end
$var wire 1 [ D44|Data[0]~clkctrl_outclk $end
$var wire 1 \ D27|RF~0_combout $end
$var wire 1 ] D27|RF~regout $end
$var wire 1 ^ D50|Data [3] $end
$var wire 1 _ D50|Data [2] $end
$var wire 1 ` D50|Data [1] $end
$var wire 1 a D50|Data [0] $end
$var wire 1 b D44|Data [3] $end
$var wire 1 c D44|Data [2] $end
$var wire 1 d D44|Data [1] $end
$var wire 1 e D44|Data [0] $end
$upscope $end
$upscope $end
$enddefinitions $end
#0
$dumpvars
1!
0"
1#
1$
0%
0&
0'
0(
0)
0*
0+
0,
0-
0.
0/
00
11
02
03
x4
05
16
x7
18
19
1:
0;
0<
0=
1>
0?
0@
0A
1B
0C
0D
0E
1F
0G
1H
0I
1J
1K
0L
0M
0N
0O
0P
1Q
0R
0S
0T
0U
0V
1W
0X
1Y
1Z
0[
0\
0]
0a
0`
0_
0^
0e
0d
0c
0b
$end
#1000
1&
1<
1=
04
1e
1_
1[
1L
0K
1?
1/
1.
1,
#2000
0&
0<
0=
14
#3000
1&
1<
1=
04
1d
0e
1a
0[
1P
1K
1@
0?
1-
0/
0.
1A
1X
#4000
0&
0<
0=
14
#5000
1&
1<
1=
04
1e
1`
0a
1[
1N
1M
0L
0K
1?
1/
1.
#6000
0&
0<
0=
14
#7000
1&
1<
1=
04
1c
0d
0e
1a
0[
0P
1R
1O
0N
1K
1C
0B
0@
0?
1+
0-
0/
0.
1U
1S
0O
1D
0A
#8000
0&
0<
0=
14
#9000
1&
1<
1=
04
1e
1^
0_
0`
0a
1E
1[
1L
0K
1B
1/
1.
1*
0,
1I
1G
1V
0F
0H
1\
0Y
1(
13
#10000
0&
0<
0=
14
#11000
1&
1<
1=
04
1d
0e
1_
0[
1P
0Z
1K
1?
1-
0/
0.
1,
01
1T
0W
12
#12000
0&
0<
0=
14
#13000
1&
1<
1=
04
1e
1a
1[
1Z
1N
0M
0L
0K
1@
0?
1/
1.
1O
1A
11
1]
10
#14000
0&
0<
0=
14
#15000
1&
1<
1=
04
1b
0c
0d
0e
1`
0a
0[
0P
0R
0N
0Z
1K
1?
1)
0+
0-
0/
0.
0U
0S
01
#16000
0&
0<
0=
14
#17000
1&
1<
1=
04
1e
1a
1[
1Z
1L
0K
0C
0B
0@
0?
1/
1.
0D
0A
11
0V
0\
1Y
03
#18000
0&
0<
0=
14
#19000
1&
1<
1=
04
1d
0e
0^
0_
0`
0a
0E
0[
1P
1K
1B
1-
0/
0.
0*
0,
0X
0T
1W
02
#20000
0&
0<
0=
14
#21000
1&
1<
1=
04
1e
1_
1[
1N
1M
0L
0K
1?
1/
1.
1,
0]
00
#22000
0&
0<
0=
14
#23000
1&
1<
1=
04
1c
0d
0e
1a
0[
0P
1R
0O
0N
1K
1@
0?
1+
0-
0/
0.
1U
1S
1O
1A
#24000
0&
0<
0=
14
#25000
1&
1<
1=
04
1e
1`
0a
1[
1L
0K
1?
1/
1.
1V
1\
#26000
0&
0<
0=
14
#27000
1&
1<
1=
04
1d
0e
1a
0[
1P
0Z
1K
1C
0B
0@
0?
1-
0/
0.
1D
0A
01
1X
1T
0Y
0W
12
13
#28000
0&
0<
0=
14
#29000
1&
1<
1=
04
1e
1^
0_
0`
0a
1E
1[
1Z
1N
0M
0L
0K
1B
1/
1.
1*
0,
0O
11
0I
0G
1]
1F
1H
0(
10
#30000
0&
0<
0=
14
#31000
1&
1<
1=
04
0b
0c
0d
0e
1_
0[
0P
0R
0N
0Z
1K
1?
0)
0+
0-
0/
0.
1,
0U
0S
01
#32000
0&
0<
0=
14
#33000
1&
1<
1=
04
1e
1a
1[
1Z
1L
0K
1@
0?
1/
1.
1A
11
0V
0\
1Y
03
#34000
0&
0<
0=
14
#35000
1&
1<
1=
04
1d
0e
1`
0a
0[
1P
1K
1?
1-
0/
0.
0X
0T
1W
02
#36000
0&
0<
0=
14
#37000
1&
1<
1=
04
1e
1a
1[
1N
1M
0L
0K
0C
0B
0@
0?
1/
1.
0D
0A
0]
00
#38000
0&
0<
0=
14
#39000
1&
1<
1=
04
1c
0d
0e
0^
0_
0`
0a
0E
0[
0P
1R
1O
0N
1K
1B
1+
0-
0/
0.
0*
0,
1U
1S
0O
#40000
0&
0<
0=
14
#41000
1&
1<
1=
04
1e
1_
1[
1L
0K
1?
1/
1.
1,
1V
1\
#42000
0&
0<
0=
14
#43000
1&
1<
1=
04
1d
0e
1a
0[
1P
0Z
1K
1@
0?
1-
0/
0.
1A
01
1X
1T
0Y
0W
12
13
#44000
0&
0<
0=
14
#45000
1&
1<
1=
04
1e
1`
0a
1[
1Z
1N
0M
0L
0K
1?
1/
1.
1O
11
1]
10
#46000
0&
0<
0=
14
#47000
1&
1<
1=
04
1b
0c
0d
0e
1a
0[
0P
0R
0N
0Z
1K
1C
0B
0@
0?
1)
0+
0-
0/
0.
0U
0S
1D
0A
01
#48000
0&
0<
0=
14
#49000
1&
1<
1=
04
1e
1^
0_
0`
0a
1E
1[
1Z
1L
0K
1B
1/
1.
1*
0,
11
1I
1G
0V
0F
0H
0\
1Y
1(
03
#50000
0&
0<
0=
14
#51000
1&
1<
1=
04
1d
0e
1_
0[
1P
1K
1?
1-
0/
0.
1,
0X
0T
1W
02
#52000
0&
0<
0=
14
#53000
1&
1<
1=
04
1e
1a
1[
1N
1M
0L
0K
1@
0?
1/
1.
1A
0]
00
#54000
0&
0<
0=
14
#55000
1&
1<
1=
04
1c
0d
0e
1`
0a
0[
0P
1R
0O
0N
1K
1?
1+
0-
0/
0.
1U
1S
1O
#56000
0&
0<
0=
14
#57000
1&
1<
1=
04
1e
1a
1[
1L
0K
0C
0B
0@
0?
1/
1.
0D
0A
1V
1\
#58000
0&
0<
0=
14
#59000
1&
1<
1=
04
1d
0e
0^
0_
0`
0a
0E
0[
1P
0Z
1K
1B
1-
0/
0.
0*
0,
01
1X
1T
0Y
0W
12
13
#60000
0&
0<
0=
14
#61000
1&
1<
1=
04
1e
1_
1[
1Z
1N
0M
0L
0K
1?
1/
1.
1,
0O
11
1]
10
#62000
0&
0<
0=
14
#63000
1&
1<
1=
04
0b
0c
0d
0e
1a
0[
0P
0R
0N
0Z
1K
1@
0?
0)
0+
0-
0/
0.
0U
0S
1A
01
#64000
0&
0<
0=
14
#65000
1&
1<
1=
04
1e
1`
0a
1[
1Z
1L
0K
1?
1/
1.
11
0V
0\
1Y
03
#66000
0&
0<
0=
14
#67000
1&
1<
1=
04
1d
0e
1a
0[
1P
1K
1C
0B
0@
0?
1-
0/
0.
1D
0A
0X
0T
1W
02
#68000
0&
0<
0=
14
#69000
1&
1<
1=
04
1e
1^
0_
0`
0a
1E
1[
1N
1M
0L
0K
1B
1/
1.
1*
0,
0I
0G
0]
1F
1H
0(
00
#70000
0&
0<
0=
14
#71000
1&
1<
1=
04
1c
0d
0e
1_
0[
0P
1R
1O
0N
1K
1?
1+
0-
0/
0.
1,
1U
1S
0O
#72000
0&
0<
0=
14
#73000
1&
1<
1=
04
1e
1a
1[
1L
0K
1@
0?
1/
1.
1A
1V
1\
#74000
0&
0<
0=
14
#75000
1&
1<
1=
04
1d
0e
1`
0a
0[
1P
0Z
1K
1?
1-
0/
0.
01
1X
1T
0Y
0W
12
13
#76000
0&
0<
0=
14
#77000
1&
1<
1=
04
1e
1a
1[
1Z
1N
0M
0L
0K
0C
0B
0@
0?
1/
1.
1O
0D
0A
11
1]
10
#78000
0&
0<
0=
14
#79000
1&
1<
1=
04
1b
0c
0d
0e
0^
0_
0`
0a
0E
0[
0P
0R
0N
0Z
1K
1B
1)
0+
0-
0/
0.
0*
0,
0U
0S
01
#80000
0&
0<
0=
14
#81000
1&
1<
1=
04
1e
1_
1[
1Z
1L
0K
1?
1/
1.
1,
11
0V
0\
1Y
03
#82000
0&
0<
0=
14
#83000
1&
1<
1=
04
1d
0e
1a
0[
1P
1K
1@
0?
1-
0/
0.
1A
0X
0T
1W
02
#84000
0&
0<
0=
14
#85000
1&
1<
1=
04
1e
1`
0a
1[
1N
1M
0L
0K
1?
1/
1.
0]
00
#86000
0&
0<
0=
14
#87000
1&
1<
1=
04
1c
0d
0e
1a
0[
0P
1R
0O
0N
1K
1C
0B
0@
0?
1+
0-
0/
0.
1U
1S
1O
1D
0A
#88000
0&
0<
0=
14
#89000
1&
1<
1=
04
1e
1^
0_
0`
0a
1E
1[
1L
0K
1B
1/
1.
1*
0,
1I
1G
1V
0F
0H
1\
1(
#90000
0&
0<
0=
14
#91000
1&
1<
1=
04
1d
0e
1_
0[
1P
0Z
1K
1?
1-
0/
0.
1,
01
1X
1T
0Y
0W
12
13
#92000
0&
0<
0=
14
#93000
1&
1<
1=
04
1e
1a
1[
1Z
1N
0M
0L
0K
1@
0?
1/
1.
0O
1A
11
1]
10
#94000
0&
0<
0=
14
#95000
1&
1<
1=
04
0b
0c
0d
0e
1`
0a
0[
0P
0R
0N
0Z
1K
1?
0)
0+
0-
0/
0.
0U
0S
01
#96000
0&
0<
0=
14
#97000
1&
1<
1=
04
1e
1a
1[
1Z
1L
0K
0C
0B
0@
0?
1/
1.
0D
0A
11
0V
0\
1Y
03
#98000
0&
0<
0=
14
#99000
1&
1<
1=
04
1d
0e
0^
0_
0`
0a
0E
0[
1P
1K
1B
1-
0/
0.
0*
0,
0X
0T
1W
02
#100000
0&
0<
0=
14
#101000
1&
1<
1=
04
1e
1_
1[
1N
1M
0L
0K
1?
1/
1.
1,
0]
00
#102000
0&
0<
0=
14
#103000
1&
1<
1=
04
1c
0d
0e
1a
0[
0P
1R
1O
0N
1K
1@
0?
1+
0-
0/
0.
1U
1S
0O
1A
#104000
0&
0<
0=
14
#105000
1&
1<
1=
04
1e
1`
0a
1[
1L
0K
1?
1/
1.
1V
1\
#106000
0&
0<
0=
14
#107000
1&
1<
1=
04
1d
0e
1a
0[
1P
0Z
1K
1C
0B
0@
0?
1-
0/
0.
1D
0A
01
1X
1T
0Y
0W
12
13
#108000
0&
0<
0=
14
#109000
1&
1<
1=
04
1e
1^
0_
0`
0a
1E
1[
1Z
1N
0M
0L
0K
1B
1/
1.
1*
0,
1O
11
0I
0G
1]
1F
1H
0(
10
#110000
0&
0<
0=
14
#111000
1&
1<
1=
04
1b
0c
0d
0e
1_
0[
0P
0R
0N
0Z
1K
1?
1)
0+
0-
0/
0.
1,
0U
0S
01
#112000
0&
0<
0=
14
#113000
1&
1<
1=
04
1e
1a
1[
1Z
1L
0K
1@
0?
1/
1.
1A
11
0V
0\
1Y
03
#114000
0&
0<
0=
14
#115000
1&
1<
1=
04
1d
0e
1`
0a
0[
1P
1K
1?
1-
0/
0.
0X
0T
1W
02
#116000
0&
0<
0=
14
#117000
1&
1<
1=
04
1e
1a
1[
1N
1M
0L
0K
0C
0B
0@
0?
1/
1.
0D
0A
0]
00
#118000
0&
0<
0=
14
#119000
1&
1<
1=
04
1c
0d
0e
0^
0_
0`
0a
0E
0[
0P
1R
0O
0N
1K
1B
1+
0-
0/
0.
0*
0,
1U
1S
1O
#120000
0&
0<
0=
14
#121000
1&
1<
1=
04
1e
1_
1[
1L
0K
1?
1/
1.
1,
1V
1\
#122000
0&
0<
0=
14
#123000
1&
1<
1=
04
1d
0e
1a
0[
1P
0Z
1K
1@
0?
1-
0/
0.
1A
01
1X
1T
0Y
0W
12
13
#124000
0&
0<
0=
14
#125000
1&
1<
1=
04
1e
1`
0a
1[
1Z
1N
0M
0L
0K
1?
1/
1.
0O
11
1]
10
#126000
0&
0<
0=
14
#127000
1&
1<
1=
04
0b
0c
0d
0e
1a
0[
0P
0R
0N
0Z
1K
1C
0B
0@
0?
0)
0+
0-
0/
0.
0U
0S
1D
0A
01
#128000
0&
0<
0=
14
#129000
1&
1<
1=
04
1e
1^
0_
0`
0a
1E
1[
1Z
1L
0K
1B
1/
1.
1*
0,
11
1I
1G
0V
0F
0H
0\
1Y
1(
03
#130000
0&
0<
0=
14
#131000
1&
1<
1=
04
1d
0e
1_
0[
1P
1K
1?
1-
0/
0.
1,
0X
0T
1W
02
#132000
0&
0<
0=
14
#133000
1&
1<
1=
04
1e
1a
1[
1N
1M
0L
0K
1@
0?
1/
1.
1A
0]
00
#134000
0&
0<
0=
14
#135000
1&
1<
1=
04
1c
0d
0e
1`
0a
0[
0P
1R
1O
0N
1K
1?
1+
0-
0/
0.
1U
1S
0O
#136000
0&
0<
0=
14
#137000
1&
1<
1=
04
1e
1a
1[
1L
0K
0C
0B
0@
0?
1/
1.
0D
0A
1V
1\
#138000
0&
0<
0=
14
#139000
1&
1<
1=
04
1d
0e
0^
0_
0`
0a
0E
0[
1P
0Z
1K
1B
1-
0/
0.
0*
0,
01
1X
1T
0Y
0W
12
13
#140000
0&
0<
0=
14
#141000
1&
1<
1=
04
1e
1_
1[
1Z
1N
0M
0L
0K
1?
1/
1.
1,
1O
11
1]
10
#142000
0&
0<
0=
14
#143000
1&
1<
1=
04
1b
0c
0d
0e
1a
0[
0P
0R
0N
0Z
1K
1@
0?
1)
0+
0-
0/
0.
0U
0S
1A
01
#144000
0&
0<
0=
14
#145000
1&
1<
1=
04
1e
1`
0a
1[
1Z
1L
0K
1?
1/
1.
11
0V
0\
1Y
03
#146000
0&
0<
0=
14
#147000
1&
1<
1=
04
1d
0e
1a
0[
1P
1K
1C
0B
0@
0?
1-
0/
0.
1D
0A
0X
0T
1W
02
#148000
0&
0<
0=
14
#149000
1&
1<
1=
04
1e
1^
0_
0`
0a
1E
1[
1N
1M
0L
0K
1B
1/
1.
1*
0,
0I
0G
0]
1F
1H
0(
00
#150000
0&
0<
0=
14
#151000
1&
1<
1=
04
1c
0d
0e
1_
0[
0P
1R
0O
0N
1K
1?
1+
0-
0/
0.
1,
1U
1S
1O
#152000
0&
0<
0=
14
#153000
1&
1<
1=
04
1e
1a
1[
1L
0K
1@
0?
1/
1.
1A
1V
1\
#154000
0&
0<
0=
14
#155000
1&
1<
1=
04
1d
0e
1`
0a
0[
1P
0Z
1K
1?
1-
0/
0.
01
1X
1T
0Y
0W
12
13
#156000
0&
0<
0=
14
#157000
1&
1<
1=
04
1e
1a
1[
1Z
1N
0M
0L
0K
0C
0B
0@
0?
1/
1.
0O
0D
0A
11
1]
10
#158000
0&
0<
0=
14
#159000
1&
1<
1=
04
0b
0c
0d
0e
0^
0_
0`
0a
0E
0[
0P
0R
0N
0Z
1K
1B
0)
0+
0-
0/
0.
0*
0,
0U
0S
01
#160000
0&
0<
0=
14
#161000
1&
1<
1=
04
1e
1_
1[
1Z
1L
0K
1?
1/
1.
1,
11
0V
0\
1Y
03
#162000
0&
0<
0=
14
#163000
1&
1<
1=
04
1d
0e
1a
0[
1P
1K
1@
0?
1-
0/
0.
1A
0X
0T
1W
02
#164000
0&
0<
0=
14
#165000
1&
1<
1=
04
1e
1`
0a
1[
1N
1M
0L
0K
1?
1/
1.
0]
00
#166000
0&
0<
0=
14
#167000
1&
1<
1=
04
1c
0d
0e
1a
0[
0P
1R
1O
0N
1K
1C
0B
0@
0?
1+
0-
0/
0.
1U
1S
0O
1D
0A
#168000
0&
0<
0=
14
#169000
1&
1<
1=
04
1e
1^
0_
0`
0a
1E
1[
1L
0K
1B
1/
1.
1*
0,
1I
1G
1V
0F
0H
1\
1(
#170000
0&
0<
0=
14
#171000
1&
1<
1=
04
1d
0e
1_
0[
1P
0Z
1K
1?
1-
0/
0.
1,
01
1X
1T
0Y
0W
12
13
#172000
0&
0<
0=
14
#173000
1&
1<
1=
04
1e
1a
1[
1Z
1N
0M
0L
0K
1@
0?
1/
1.
1O
1A
11
1]
10
#174000
0&
0<
0=
14
#175000
1&
1<
1=
04
1b
0c
0d
0e
1`
0a
0[
0P
0R
0N
0Z
1K
1?
1)
0+
0-
0/
0.
0U
0S
01
#176000
0&
0<
0=
14
#177000
1&
1<
1=
04
1e
1a
1[
1Z
1L
0K
0C
0B
0@
0?
1/
1.
0D
0A
11
0V
0\
1Y
03
#178000
0&
0<
0=
14
#179000
1&
1<
1=
04
1d
0e
0^
0_
0`
0a
0E
0[
1P
1K
1B
1-
0/
0.
0*
0,
0X
0T
1W
02
#180000
0&
0<
0=
14
#181000
1&
1<
1=
04
1e
1_
1[
1N
1M
0L
0K
1?
1/
1.
1,
0]
00
#182000
0&
0<
0=
14
#183000
1&
1<
1=
04
1c
0d
0e
1a
0[
0P
1R
0O
0N
1K
1@
0?
1+
0-
0/
0.
1U
1S
1O
1A
#184000
0&
0<
0=
14
#185000
1&
1<
1=
04
1e
1`
0a
1[
1L
0K
1?
1/
1.
1V
1\
#186000
0&
0<
0=
14
#187000
1&
1<
1=
04
1d
0e
1a
0[
1P
0Z
1K
1C
0B
0@
0?
1-
0/
0.
1D
0A
01
1X
1T
0Y
0W
12
13
#188000
0&
0<
0=
14
#189000
1&
1<
1=
04
1e
1^
0_
0`
0a
1E
1[
1Z
1N
0M
0L
0K
1B
1/
1.
1*
0,
0O
11
0I
0G
1]
1F
1H
0(
10
#190000
0&
0<
0=
14
#191000
1&
1<
1=
04
0b
0c
0d
0e
1_
0[
0P
0R
0N
0Z
1K
1?
0)
0+
0-
0/
0.
1,
0U
0S
01
#192000
0&
0<
0=
14
#193000
1&
1<
1=
04
1e
1a
1[
1Z
1L
0K
1@
0?
1/
1.
1A
11
0V
0\
1Y
03
#194000
0&
0<
0=
14
#195000
1&
1<
1=
04
1d
0e
1`
0a
0[
1P
1K
1?
1-
0/
0.
0X
0T
1W
02
#196000
0&
0<
0=
14
#197000
1&
1<
1=
04
1e
1a
1[
1N
1M
0L
0K
0C
0B
0@
0?
1/
1.
0D
0A
0]
00
#198000
0&
0<
0=
14
#199000
1&
1<
1=
04
1c
0d
0e
0^
0_
0`
0a
0E
0[
0P
1R
1O
0N
1K
1B
1+
0-
0/
0.
0*
0,
1U
1S
0O
#200000
0&
0<
0=
14
#201000
1&
1<
1=
04
1e
1_
1[
1L
0K
1?
1/
1.
1,
1V
1\
#202000
0&
0<
0=
14
#203000
1&
1<
1=
04
1d
0e
1a
0[
1P
0Z
1K
1@
0?
1-
0/
0.
1A
01
1X
1T
0Y
0W
12
13
#204000
0&
0<
0=
14
#205000
1&
1<
1=
04
1e
1`
0a
1[
1Z
1N
0M
0L
0K
1?
1/
1.
1O
11
1]
10
#206000
0&
0<
0=
14
#207000
1&
1<
1=
04
1b
0c
0d
0e
1a
0[
0P
0R
0N
0Z
1K
1C
0B
0@
0?
1)
0+
0-
0/
0.
0U
0S
1D
0A
01
#208000
0&
0<
0=
14
#209000
1&
1<
1=
04
1e
1^
0_
0`
0a
1E
1[
1Z
1L
0K
1B
1/
1.
1*
0,
11
1I
1G
0V
0F
0H
0\
1Y
1(
03
#210000
0&
0<
0=
14
#211000
1&
1<
1=
04
1d
0e
1_
0[
1P
1K
1?
1-
0/
0.
1,
0X
0T
1W
02
#212000
0&
0<
0=
14
#213000
1&
1<
1=
04
1e
1a
1[
1N
1M
0L
0K
1@
0?
1/
1.
1A
0]
00
#214000
0&
0<
0=
14
#215000
1&
1<
1=
04
1c
0d
0e
1`
0a
0[
0P
1R
0O
0N
1K
1?
1+
0-
0/
0.
1U
1S
1O
#216000
0&
0<
0=
14
#217000
1&
1<
1=
04
1e
1a
1[
1L
0K
0C
0B
0@
0?
1/
1.
0D
0A
1V
1\
#218000
0&
0<
0=
14
#219000
1&
1<
1=
04
1d
0e
0^
0_
0`
0a
0E
0[
1P
0Z
1K
1B
1-
0/
0.
0*
0,
01
1X
1T
0Y
0W
12
13
#220000
0&
0<
0=
14
#221000
1&
1<
1=
04
1e
1_
1[
1Z
1N
0M
0L
0K
1?
1/
1.
1,
0O
11
1]
10
#222000
0&
0<
0=
14
#223000
1&
1<
1=
04
0b
0c
0d
0e
1a
0[
0P
0R
0N
0Z
1K
1@
0?
0)
0+
0-
0/
0.
0U
0S
1A
01
#224000
0&
0<
0=
14
#225000
1&
1<
1=
04
1e
1`
0a
1[
1Z
1L
0K
1?
1/
1.
11
0V
0\
1Y
03
#226000
0&
0<
0=
14
#227000
1&
1<
1=
04
1d
0e
1a
0[
1P
1K
1C
0B
0@
0?
1-
0/
0.
1D
0A
0X
0T
1W
02
#228000
0&
0<
0=
14
#229000
1&
1<
1=
04
1e
1^
0_
0`
0a
1E
1[
1N
1M
0L
0K
1B
1/
1.
1*
0,
0I
0G
0]
1F
1H
0(
00
#230000
0&
0<
0=
14
#231000
1&
1<
1=
04
1c
0d
0e
1_
0[
0P
1R
1O
0N
1K
1?
1+
0-
0/
0.
1,
1U
1S
0O
#232000
0&
0<
0=
14
#233000
1&
1<
1=
04
1e
1a
1[
1L
0K
1@
0?
1/
1.
1A
1V
1\
#234000
0&
0<
0=
14
#235000
1&
1<
1=
04
1d
0e
1`
0a
0[
1P
0Z
1K
1?
1-
0/
0.
01
1X
1T
0Y
0W
12
13
#236000
0&
0<
0=
14
#237000
1&
1<
1=
04
1e
1a
1[
1Z
1N
0M
0L
0K
0C
0B
0@
0?
1/
1.
1O
0D
0A
11
1]
10
#238000
0&
0<
0=
14
#239000
1&
1<
1=
04
1b
0c
0d
0e
0^
0_
0`
0a
0E
0[
0P
0R
0N
0Z
1K
1B
1)
0+
0-
0/
0.
0*
0,
0U
0S
01
#240000
0&
0<
0=
14
#241000
1&
1<
1=
04
1e
1_
1[
1Z
1L
0K
1?
1/
1.
1,
11
0V
0\
1Y
03
#242000
0&
0<
0=
14
#243000
1&
1<
1=
04
1d
0e
1a
0[
1P
1K
1@
0?
1-
0/
0.
1A
0X
0T
1W
02
#244000
0&
0<
0=
14
#245000
1&
1<
1=
04
1e
1`
0a
1[
1N
1M
0L
0K
1?
1/
1.
0]
00
#246000
0&
0<
0=
14
#247000
1&
1<
1=
04
1c
0d
0e
1a
0[
0P
1R
0O
0N
1K
1C
0B
0@
0?
1+
0-
0/
0.
1U
1S
1O
1D
0A
#248000
0&
0<
0=
14
#249000
1&
1<
1=
04
1e
1^
0_
0`
0a
1E
1[
1L
0K
1B
1/
1.
1*
0,
1I
1G
1V
0F
0H
1\
1(
#250000
0&
0<
0=
14
#251000
1&
1<
1=
04
1d
0e
1_
0[
1P
0Z
1K
1?
1-
0/
0.
1,
01
1X
1T
0Y
0W
12
13
#252000
0&
0<
0=
14
#253000
1&
1<
1=
04
1e
1a
1[
1Z
1N
0M
0L
0K
1@
0?
1/
1.
0O
1A
11
1]
10
#254000
0&
0<
0=
14
#255000
1&
1<
1=
04
0b
0c
0d
0e
1`
0a
0[
0P
0R
0N
0Z
1K
1?
0)
0+
0-
0/
0.
0U
0S
01
#256000
0&
0<
0=
14
#257000
1&
1<
1=
04
1e
1a
1[
1Z
1L
0K
0C
0B
0@
0?
1/
1.
0D
0A
11
0V
0\
1Y
03
#258000
0&
0<
0=
14
#259000
1&
1<
1=
04
1d
0e
0^
0_
0`
0a
0E
0[
1P
1K
1B
1-
0/
0.
0*
0,
0X
0T
1W
02
#260000
0&
0<
0=
14
#261000
1&
1<
1=
04
1e
1_
1[
1N
1M
0L
0K
1?
1/
1.
1,
0]
00
#262000
0&
0<
0=
14
#263000
1&
1<
1=
04
1c
0d
0e
1a
0[
0P
1R
1O
0N
1K
1@
0?
1+
0-
0/
0.
1U
1S
0O
1A
#264000
0&
0<
0=
14
#265000
1&
1<
1=
04
1e
1`
0a
1[
1L
0K
1?
1/
1.
1V
1\
#266000
0&
0<
0=
14
#267000
1&
1<
1=
04
1d
0e
1a
0[
1P
0Z
1K
1C
0B
0@
0?
1-
0/
0.
1D
0A
01
1X
1T
0Y
0W
12
13
#268000
0&
0<
0=
14
#269000
1&
1<
1=
04
1e
1^
0_
0`
0a
1E
1[
1Z
1N
0M
0L
0K
1B
1/
1.
1*
0,
1O
11
0I
0G
1]
1F
1H
0(
10
#270000
0&
0<
0=
14
#271000
1&
1<
1=
04
1b
0c
0d
0e
1_
0[
0P
0R
0N
0Z
1K
1?
1)
0+
0-
0/
0.
1,
0U
0S
01
#272000
0&
0<
0=
14
#273000
1&
1<
1=
04
1e
1a
1[
1Z
1L
0K
1@
0?
1/
1.
1A
11
0V
0\
1Y
03
#274000
0&
0<
0=
14
#275000
1&
1<
1=
04
1d
0e
1`
0a
0[
1P
1K
1?
1-
0/
0.
0X
0T
1W
02
#276000
0&
0<
0=
14
#277000
1&
1<
1=
04
1e
1a
1[
1N
1M
0L
0K
0C
0B
0@
0?
1/
1.
0D
0A
0]
00
#278000
0&
0<
0=
14
#279000
1&
1<
1=
04
1c
0d
0e
0^
0_
0`
0a
0E
0[
0P
1R
0O
0N
1K
1B
1+
0-
0/
0.
0*
0,
1U
1S
1O
#280000
0&
0<
0=
14
#281000
1&
1<
1=
04
1e
1_
1[
1L
0K
1?
1/
1.
1,
1V
1\
#282000
0&
0<
0=
14
#283000
1&
1<
1=
04
1d
0e
1a
0[
1P
0Z
1K
1@
0?
1-
0/
0.
1A
01
1X
1T
0Y
0W
12
13
#284000
0&
0<
0=
14
#285000
1&
1<
1=
04
1e
1`
0a
1[
1Z
1N
0M
0L
0K
1?
1/
1.
0O
11
1]
10
#286000
0&
0<
0=
14
#287000
1&
1<
1=
04
0b
0c
0d
0e
1a
0[
0P
0R
0N
0Z
1K
1C
0B
0@
0?
0)
0+
0-
0/
0.
0U
0S
1D
0A
01
#288000
0&
0<
0=
14
#289000
1&
1<
1=
04
1e
1^
0_
0`
0a
1E
1[
1Z
1L
0K
1B
1/
1.
1*
0,
11
1I
1G
0V
0F
0H
0\
1Y
1(
03
#290000
0&
0<
0=
14
#291000
1&
1<
1=
04
1d
0e
1_
0[
1P
1K
1?
1-
0/
0.
1,
0X
0T
1W
02
#292000
0&
0<
0=
14
#293000
1&
1<
1=
04
1e
1a
1[
1N
1M
0L
0K
1@
0?
1/
1.
1A
0]
00
#294000
0&
0<
0=
14
#295000
1&
1<
1=
04
1c
0d
0e
1`
0a
0[
0P
1R
1O
0N
1K
1?
1+
0-
0/
0.
1U
1S
0O
#296000
0&
0<
0=
14
#297000
1&
1<
1=
04
1e
1a
1[
1L
0K
0C
0B
0@
0?
1/
1.
0D
0A
1V
1\
#298000
0&
0<
0=
14
#299000
1&
1<
1=
04
1d
0e
0^
0_
0`
0a
0E
0[
1P
0Z
1K
1B
1-
0/
0.
0*
0,
01
1X
1T
0Y
0W
12
13
#300000
0&
0<
0=
14
#301000
1&
1<
1=
04
1e
1_
1[
1Z
1N
0M
0L
0K
1?
1/
1.
1,
1O
11
1]
10
#302000
0&
0<
0=
14
#303000
1&
1<
1=
04
1b
0c
0d
0e
1a
0[
0P
0R
0N
0Z
1K
1@
0?
1)
0+
0-
0/
0.
0U
0S
1A
01
#304000
0&
0<
0=
14
#305000
1&
1<
1=
04
1e
1`
0a
1[
1Z
1L
0K
1?
1/
1.
11
0V
0\
1Y
03
#306000
0&
0<
0=
14
#307000
1&
1<
1=
04
1d
0e
1a
0[
1P
1K
1C
0B
0@
0?
1-
0/
0.
1D
0A
0X
0T
1W
02
#308000
0&
0<
0=
14
#309000
1&
1<
1=
04
1e
1^
0_
0`
0a
1E
1[
1N
1M
0L
0K
1B
1/
1.
1*
0,
0I
0G
0]
1F
1H
0(
00
#310000
0&
0<
0=
14
#311000
1&
1<
1=
04
1c
0d
0e
1_
0[
0P
1R
0O
0N
1K
1?
1+
0-
0/
0.
1,
1U
1S
1O
#312000
0&
0<
0=
14
